simulation step,x,y,z,vx,vy,vz
2000,0.00080512550987,-0.00151554474838,0.374740569135,10.2383694048,715.420656221,91.5111322283
2000,0.000723279098449,0.00097321065552,0.374740569135,-83.0157379183,710.907911106,167.778875989
2000,0.00169387982375,-0.000538097871594,0.374740569135,3.70586422209,833.369430874,220.218054651
2000,-0.000642182828702,-0.00112914480936,0.374740569135,200.399477608,774.072449607,135.923697328
2000,-0.00099135020415,-0.00122714099907,0.374740569135,110.891233086,712.515877393,-78.9251447412
2000,0.000444796306854,-0.00150479692639,0.374740569135,-181.266925096,732.90866154,159.113438539
2000,-0.000198536890729,-0.00158289968926,0.374740569135,-87.1257026438,902.397458265,41.4543902899
2000,0.00155996887449,0.000813017553109,0.374740569135,-34.9530285834,721.650264379,-167.211440351
2000,-0.000790483979459,0.00122858166689,0.374740569135,-49.3999601749,837.018363073,81.0682909847
2000,-0.000573300430994,0.0015004844001,0.374740569135,5.15667263857,950.892867911,-109.149352501
2000,0.00121268101306,6.50326107912e-05,0.374740569135,-133.318537164,772.723544637,82.0296882327
2000,0.00116872336921,-0.00050037685653,0.374740569135,53.2427023703,748.793100416,-58.8874184927
2000,-0.000565737293456,0.00124263402727,0.374740569135,71.9768861377,944.902624906,52.4501604223
2000,0.00154180238544,-0.000699398170193,0.374740569135,80.5436997002,736.934466696,13.5136661494
2000,-0.00137819229363,-0.000964277562168,0.374740569135,72.9111218242,715.942106659,141.264199247
2000,-0.00159209189587,3.08820981905e-05,0.374740569135,-161.231696899,854.035561268,-142.27092485
2000,-0.000589394131085,0.00167628969286,0.374740569135,-69.7733544938,835.999897594,-185.374539982
2000,-0.00148501714024,-0.000949777115512,0.374740569135,-136.506934727,947.029005183,-87.1805813795
2000,-0.00112409498609,0.00074686512166,0.374740569135,25.5983716084,805.712854013,56.9223466712
2000,0.00126829749902,0.000943102093188,0.374740569135,-125.891392059,715.039009304,184.206153423
2000,0.00140691041051,0.000733141703567,0.374740569135,63.6581301261,717.770197545,-11.8891733517
2000,0.00113837767933,-0.0011850278891,0.374740569135,-98.0559913935,901.956902037,119.378815949
2000,-0.00138978480372,0.000898204328972,0.374740569135,-2.72180140673,691.45122993,32.3707750352
2000,-0.00129016136033,0.000655981036642,0.374740569135,-14.1473682479,780.314205637,-156.141400052
2000,-0.000176333115826,0.00167151341632,0.374740569135,-26.1055879666,868.417488542,-113.916806141
2000,0.0016716424803,0.000341865625227,0.374740569135,-67.3538831806,958.136055791,29.9613112331
2000,-0.000787671324903,0.00156557875985,0.374740569135,68.9299723196,603.300446905,-23.124112551
2000,-4.55281876972e-05,0.00130035409241,0.374740569135,-142.597124387,826.742014354,-26.7193513702
2000,-0.0015186133371,0.000264950877475,0.374740569135,-103.551391686,714.859695103,-73.0797475314
2000,0.0010763380832,-0.00119889203475,0.374740569135,44.97228347,893.01994292,76.8873746191
2000,0.000435007367463,0.00149452528595,0.374740569135,26.8132564268,892.936169382,57.3225604856
2000,-0.000748540665972,0.00112635001575,0.374740569135,64.8616858808,863.315255075,-69.9728751286
2000,0.00141640436838,0.000174789942412,0.374740569135,-45.4628492544,796.056936419,221.719332479
2000,-0.000879577968499,-0.000952927527741,0.374740569135,-25.8568825664,775.40241252,-126.593549306
2000,-0.00127426454187,-0.000507895266448,0.374740569135,31.5955589266,864.892719411,68.644132461
2000,0.00026033527371,-0.00170939042351,0.374740569135,18.6884417965,561.626203709,91.2628475835
2000,-0.00121202581144,0.0012377978345,0.374740569135,183.160959515,883.101141684,69.9835601509
2000,-0.000804226517116,0.00122151780279,0.374740569135,-113.453715186,773.689497282,-78.7935271624
2000,0.00147721999511,-0.000184711902947,0.374740569135,-205.271028048,800.251128873,175.329560592
2000,0.000304685051108,-0.00169200149164,0.374740569135,189.37029384,795.059388773,-13.0826204886
2000,0.000962023929048,-0.0011050551037,0.374740569135,-198.229716023,797.105199035,100.582748085
2000,-0.000887327821592,-0.00110119891412,0.374740569135,-102.218741793,891.205196681,-58.1372553577
2000,-0.000235898190995,-0.00141238313139,0.374740569135,-257.174983619,686.515137159,-177.288176864
2000,0.000663153169463,-0.00167181325676,0.374740569135,74.988083594,826.500613584,195.343141334
2000,0.000491216167295,0.00160240389736,0.374740569135,81.0827429084,866.708059599,12.8443110169
2000,-0.00139333773747,-0.000592234172531,0.374740569135,108.841487945,795.985137015,-16.405779356
2000,0.000125966028987,-0.0013940109123,0.374740569135,-10.7873516234,792.08339547,22.3368165483
2000,-0.00073690694327,-0.00134239481347,0.374740569135,167.141755456,996.418198068,65.4876426465
2000,0.00102986733723,-0.000921775289374,0.374740569135,94.7261378693,801.521661739,37.2033573275
2000,-0.00062528103909,-0.0012217968991,0.374740569135,67.21608868,913.533388246,113.766861918
2000,0.000513281041295,-0.00143975078656,0.374740569135,-82.5340707372,649.777145689,-96.9775406222
2000,0.00144381963791,8.70589333203e-05,0.374740569135,108.422383685,837.585874264,-70.5985783347
2000,0.00108185072751,-0.000772667311346,0.374740569135,95.0997124324,763.385190814,-149.38044039
2000,0.000505232403261,0.0013712178921,0.374740569135,23.4885748916,762.475994882,21.5992624284
2000,-0.0010985108253,-0.00111471795731,0.374740569135,40.5670730004,801.075965405,-44.7617564121
2000,0.000763618992737,0.00118391444277,0.374740569135,-141.291633575,759.573403481,-136.354837637
2000,-8.85048608274e-05,0.00142623723428,0.374740569135,62.9702359451,962.09464439,7.40923716356
2000,0.00104329186447,-0.000625728060751,0.374740569135,10.3695081502,834.16507793,88.974567472
2000,0.00168633883942,0.000454169694922,0.374740569135,109.784058912,769.281005135,-27.9981255182
2000,-0.00172075123783,0.000396507803744,0.374740569135,-40.2221944523,718.227124305,-128.030722356
2000,-0.00144083659817,0.00102318457452,0.374740569135,23.2698908794,925.679673709,-58.159245365
2000,-0.000585501482766,0.0016592385881,0.374740569135,-77.2241812568,879.793633312,-98.9847828525
2000,-0.000552201663008,-0.00126832577047,0.374740569135,-75.7754016291,719.606901937,-23.1668482759
2000,0.00116006035442,0.000937022996395,0.374740569135,-53.6188400831,774.327283862,-124.686347212
2000,-0.00155904253279,0.000363519152081,0.374740569135,-48.4816522007,889.252113146,97.6218303183
2000,-0.00128724063348,-0.00105849262871,0.374740569135,-2.59825315897,712.779495091,-145.803433299
2000,-0.00108756136248,-0.0011573309927,0.374740569135,141.558607222,791.356022894,65.7103733512
2000,0.00152734009228,-0.000826616270465,0.374740569135,-34.6092304199,740.450191478,134.670466367
2000,0.00159913322987,-0.000224416351608,0.374740569135,32.5237693733,780.739446898,-126.990269352
2000,-0.000298165140276,0.00128323708694,0.374740569135,-179.011986965,761.973397963,-9.08030460598
2000,-0.00125634940845,0.00023688341872,0.374740569135,123.969631881,788.116936485,-117.954335086
2000,-0.0016933922173,-0.000544247865933,0.374740569135,-106.2494078,763.846132307,-4.51510842892
2000,-0.00167774989595,0.000224779574229,0.374740569135,22.7546967751,917.40005853,-37.1279401832
2000,-0.00143888467261,0.000141207290022,0.374740569135,-38.9276615993,888.306416355,24.1467092913
2000,0.00128710186227,-9.71852407436e-06,0.374740569135,-95.3245278658,823.208503699,-148.0688587
2000,-0.000778293721294,0.00138725482258,0.374740569135,106.444580701,848.594561017,13.5786864771
2000,-3.22238070837e-05,-0.00130123731798,0.374740569135,-159.316329644,844.085322268,84.2006171503
2000,-0.00130286867655,0.00115898370677,0.374740569135,-35.9091402951,815.290283683,-94.0170508755
2000,0.00131364397421,0.00075882329103,0.374740569135,-125.285400589,821.150788022,49.4830634429
2000,0.00101354493742,-0.00105426426366,0.374740569135,75.8703061392,788.784761155,28.9387265803
2000,0.000598477573469,0.00123772522602,0.374740569135,-110.952726034,834.043529431,-51.3160485835
2000,-0.000598931788596,0.00113787811183,0.374740569135,123.222815935,499.470254252,124.757808878
2000,0.00134896926416,0.000567332152922,0.374740569135,-45.6686814559,932.456896075,71.3111144129
2000,-0.000619785773558,0.00133831568244,0.374740569135,3.20584684533,813.223006791,-21.1345991241
2000,-5.801922073e-05,-0.00163715560747,0.374740569135,160.90774319,743.739635794,5.11216665293
2000,0.00170895790848,-0.000325887326646,0.374740569135,-3.24512877934,797.776970722,46.7892961656
2000,0.000129867567036,-0.00134664988809,0.374740569135,-10.1044957617,763.427209415,18.4328893474
2000,0.00111231393979,-0.000450343085621,0.374740569135,-76.2774829903,742.546170984,112.384630263
2000,-0.00141301371063,0.00021274701558,0.374740569135,31.7333835261,929.363227921,-46.2965536419
2000,0.00138305245743,0.000956920318653,0.374740569135,-38.9928071541,945.26344772,-108.838302579
2000,0.0011941993174,0.00125967092629,0.374740569135,-28.0834298707,823.783540303,31.6436845444
2000,-0.00147169904759,-0.000510294221368,0.374740569135,-17.491420857,804.636950797,-121.384973226
2000,-0.00147998341642,5.49444496638e-05,0.374740569135,-25.167755972,717.735811383,44.2421119563
2000,4.60662171253e-05,-0.0014395615702,0.374740569135,136.820522426,822.597709445,117.11435223
2000,0.000238838375039,0.00132661593725,0.374740569135,26.7288277102,899.97994052,-113.62683793
2000,-0.00141038644622,0.000425066293229,0.374740569135,-24.0802672402,844.540163186,-70.3759313907
2000,-0.00165287552128,0.000415770343997,0.374740569135,94.2429073039,766.545003514,-64.2049399504
2000,0.000702490886799,0.00132446379499,0.374740569135,114.394227994,762.799079742,-56.3153598639
2000,-0.000937004299002,0.000835414434069,0.374740569135,-103.173303373,675.612485711,25.3234220796
2000,-0.000180224745355,-0.00148827686631,0.374740569135,-133.981255167,832.930121397,-45.9667834291
2001,-0.000870503404099,-0.00139493117202,0.374740569135,-98.7430898485,817.138692944,85.9755019771
2001,-0.00151624598742,0.000769997558411,0.374740569135,-181.053309739,736.272666781,170.030652138
2001,-0.000236942069541,-0.00161946828748,0.374740569135,-75.4252547607,703.5311754,-4.88156232695
2001,-0.00154680818716,-0.000734523621006,0.374740569135,-72.4128545615,815.475111832,5.48653839419
2001,-0.00166098560394,-0.000550593214367,0.374740569135,-9.9763205502,955.725889072,34.6913215828
2001,0.00127673867429,-0.000802501476474,0.374740569135,3.47570416131,749.001364211,-55.5509837727
2001,-0.00141921457962,-0.000136573338775,0.374740569135,-104.439865859,766.029315519,-50.0989610357
2001,-0.00120002223253,-0.000714682132867,0.374740569135,-42.8554396716,774.537947593,-31.5436348512
2001,0.00070488553305,-0.00157042811782,0.374740569135,54.1142112678,689.730136638,189.258950692
2001,-0.000482153839494,0.00136996558226,0.374740569135,-104.212742132,896.799869067,-298.674352787
2001,-0.000243282636723,0.00135418607771,0.374740569135,41.5172801213,762.395429534,-33.1634398782
2001,0.00102839016895,-0.00146873282359,0.374740569135,-74.628948942,798.110458086,-12.1170327635
2001,0.000233757049993,-0.00125472690756,0.374740569135,2.05408781412,710.216472211,-19.6546126202
2001,-0.00157641160818,0.000783113202854,0.374740569135,52.479092186,727.741294346,-135.260489339
2001,0.000164881354933,-0.00158628823135,0.374740569135,-55.4805385168,950.811108273,29.9160939057
2001,0.00123796826106,0.000852775784592,0.374740569135,-103.333556562,928.704995038,-60.2897948915
2001,-0.00155902045605,-0.000719767444651,0.374740569135,302.641974535,693.233866372,-98.7207234845
2001,0.00141282360645,0.000647580986207,0.374740569135,-215.011532038,872.442336933,-141.71432994
2001,-0.00174768665426,0.00010196633903,0.374740569135,29.3026983359,756.492481564,-17.3351130687
2001,0.000411940966509,0.00128060049235,0.374740569135,57.1467804668,741.455837716,149.625123382
2001,0.00145787704886,0.000929718409118,0.374740569135,41.4482658904,728.779046731,-65.2312823802
2001,-0.000708037976813,0.00119597776749,0.374740569135,82.0599556752,860.736346647,50.368979591
2001,-0.00126734993193,0.000383900256048,0.374740569135,-60.8875120667,775.702491163,103.101254679
2001,0.00062654710605,-0.00150266440516,0.374740569135,-70.0314342268,740.86307159,26.4819717939
2001,-2.64636905989e-05,-0.00166227287551,0.374740569135,-4.10245971343,734.819975408,69.2176175842
2001,0.00106988501617,-0.00111008103039,0.374740569135,100.219737568,919.771691787,-148.891360631
2001,0.00107721816832,-0.00138618794327,0.374740569135,94.1555564276,811.635186292,-12.6353577431
2001,0.00115232851984,0.00106442901935,0.374740569135,-83.2498869708,683.200803077,-3.59378635713
2001,0.000759009751286,0.00130272896537,0.374740569135,25.9915973881,858.32727565,84.0747025698
2001,0.000374577837094,0.0013705483897,0.374740569135,5.14296071824,643.452654499,37.3530636943
2001,0.0015481644395,-0.000565760346663,0.374740569135,-157.665533642,825.037874564,-116.558990245
2001,0.000756172509116,-0.00100940101048,0.374740569135,58.0013256128,898.51597084,-9.03750164359
2001,-0.00038329549498,0.00173188666981,0.374740569135,72.6850872862,653.646933435,97.5371228244
2001,-0.0006881498639,-0.00110944218616,0.374740569135,-25.5345787405,831.373843713,-112.948954268
2001,0.000629743344713,-0.00154535784019,0.374740569135,-12.7380794268,752.683812819,-33.3416401491
2001,0.00119164839955,0.00117850310349,0.374740569135,-1.87970839396,903.74937122,89.1045399422
2001,-0.00102088915944,0.00106004814495,0.374740569135,-3.4088745263,921.043398113,-1.62147071254
2001,-0.000239105843314,0.00145075705707,0.374740569135,-8.71467428498,884.655273955,-101.359615661
2001,-0.000355136473923,0.00120623020296,0.374740569135,27.8555580771,639.256683452,-32.5572523525
2001,-0.00111771133696,-0.00133973589344,0.374740569135,-148.781022424,667.084698625,-149.03003083
2001,-0.00128085817741,0.00112225754194,0.374740569135,-141.793271363,673.287843051,71.2649406827
2001,0.0015717024176,0.000294293837118,0.374740569135,-31.2619475839,736.873417206,2.77382547952
2001,0.00117344711247,-0.000903413697577,0.374740569135,-63.3405394133,691.908463268,12.0851313639
2001,0.00116274155117,-0.000577576850668,0.374740569135,-7.62475895468,668.42716659,68.4313600992
2001,0.000126553624411,0.00119796357091,0.374740569135,41.099330642,806.204410667,-97.5990888171
2001,0.000536947328102,-0.00128050016676,0.374740569135,18.1530132558,664.554488381,-131.463935728
2001,0.00151088229191,-0.000139499703243,0.374740569135,62.6121370119,741.323014645,9.85943530756
2001,-0.000753754338837,-0.00152312647838,0.374740569135,-141.411672074,677.048171287,134.541879857
2001,-0.00140513029595,-0.000560076022444,0.374740569135,-57.2534307006,666.273688362,73.6770081897
2001,0.00114526487771,-0.00117676267089,0.374740569135,10.3784198175,780.760979235,88.3466580659
2001,-9.19816412167e-05,-0.00144068278511,0.374740569135,-21.9098260945,703.57613164,11.3939856039
2001,-0.00130382083959,-0.00057182036977,0.374740569135,0.650794091935,746.483835273,-53.0806856151
2001,-0.000635353880984,-0.00138146250788,0.374740569135,-91.106200869,813.03333828,106.199614114
2001,-0.00153197976391,-0.000518214656665,0.374740569135,52.0498084744,778.384321157,-25.4626499116
2001,-0.0015037961393,-0.000668541539909,0.374740569135,38.033318978,810.243457673,122.634993685
2001,0.00120269740018,-0.000531658787294,0.374740569135,-94.6836802121,575.750557076,5.57897110863
2001,4.62773569824e-05,0.00157305624802,0.374740569135,-20.5536422109,703.637922733,50.8555782844
2001,-0.00154041778705,-0.000860865676156,0.374740569135,87.6201929922,772.173147397,60.4745304953
2001,-1.9318220104e-05,0.00143752514645,0.374740569135,16.0934491222,544.156945209,-102.838055528
2001,-0.000669254481814,-0.00111524073451,0.374740569135,24.3816297062,858.774514529,-9.2891390121
2001,0.000907093281916,-0.00113796001615,0.374740569135,38.5150979501,834.662775979,-35.9596043008
2001,-0.00157544564654,-0.000579973184397,0.374740569135,-49.9127136282,785.090310662,200.365758531
2001,-0.000174219858993,0.00123728092485,0.374740569135,-98.7467333839,835.555728748,-23.1611792592
2001,0.00131479306356,-0.00095978138469,0.374740569135,90.960716506,713.84492444,-30.7424369083
2001,0.000193179970426,-0.00124260160592,0.374740569135,-27.4824493946,661.307035737,-59.6560029239
2001,-0.00122309611362,0.000424649748651,0.374740569135,-63.0161233104,647.876503326,27.6373395168
2001,-0.00154436599966,0.000570654356316,0.374740569135,111.80032544,969.731581297,-0.084608293523
2001,-0.00128432129966,0.000497958185558,0.374740569135,-32.1723510825,617.382374431,-5.43607492506
2001,-0.00101685460574,0.000896826280281,0.374740569135,-77.0275533236,696.233217931,77.5169375872
2001,0.000961564780291,-0.00118116582396,0.374740569135,30.1092701797,1021.39557409,-19.9811997195
2001,-0.00152232482727,0.000152157479549,0.374740569135,104.47508723,876.292902778,-27.0506995735
2001,-0.000432594511732,-0.00154495948197,0.374740569135,58.6815991077,684.869414695,159.167430784
2001,-0.00113883859101,0.000588958024128,0.374740569135,93.1237686688,953.669037928,-8.53721134403
2001,0.00168766375449,0.000493205405983,0.374740569135,-189.865371813,933.072267606,-73.9912865958
2001,0.00126881099722,-0.00121162106659,0.374740569135,2.83172507698,729.805652548,61.4155698446
2001,-0.00174614702413,-0.000241543770141,0.374740569135,-110.343621516,801.647035635,124.685480121
2001,-0.00144115907823,0.000740986440538,0.374740569135,-20.209008039,881.470562691,72.5373662104
2001,-0.000748433223468,0.00110248522373,0.374740569135,-41.9139840143,903.69766352,57.7137782812
2001,0.00140927456132,0.000585786301578,0.374740569135,100.101996417,794.069165583,-123.591486776
2001,8.08031107378e-05,-0.00167898140589,0.374740569135,128.436169558,681.417046909,-118.797701961
2001,-0.000945140688261,-0.00143625389768,0.374740569135,-44.4552238598,569.044314077,-65.3879105081
2001,-0.00114785820947,-0.000945763432352,0.374740569135,15.3531225993,775.822449362,26.9105837524
2001,-0.000202393151364,-0.00156601642274,0.374740569135,-33.3016397471,776.826664021,78.9211319683
2001,0.000663379032715,-0.00111783874374,0.374740569135,102.343821553,676.382458526,-96.6690845076
2001,-0.00144190959447,0.000809283166894,0.374740569135,46.0433520676,811.497676847,141.821025166
2001,-0.00097228034562,0.000894136169677,0.374740569135,-126.906760089,957.092751879,16.1601403862
2001,0.0014421037259,-0.000980511201225,0.374740569135,162.84864749,817.905292223,102.428732173
2001,-0.00014001679647,-0.00177046709245,0.374740569135,-154.244921002,727.15407599,83.7829972674
2001,0.00122277061585,0.000322444142745,0.374740569135,-8.59605748503,653.458001875,1.32216128611
2001,0.000905273634761,0.00106128558288,0.374740569135,67.7364733561,906.230643349,66.5756853394
2001,-0.000808895744189,0.0012361285418,0.374740569135,36.1467728048,760.339101838,-169.161291346
2001,-0.00034699509704,0.00145849178096,0.374740569135,-88.8512747582,917.423132925,-55.2158398162
2001,-0.00122749559303,0.00131573211658,0.374740569135,-13.2701955166,819.945222329,90.9031623086
2001,-0.000951767913835,-0.000752302131545,0.374740569135,105.397115523,643.111621537,66.8224347921
2001,0.000956668208288,0.001077488382,0.374740569135,-79.8422168848,801.346142469,-106.260410796
2001,0.00148357685639,-0.000928661149625,0.374740569135,125.417637602,872.601480116,-141.59039673
2001,0.00119434089307,0.0010443447108,0.374740569135,15.6072720126,671.853539272,5.67791730363
2001,-0.000988864633887,-0.00112836814938,0.374740569135,66.0007985503,802.856797256,123.593491717
2001,0.00147958973291,-0.00049964913604,0.374740569135,15.9232600488,912.393017789,111.05745581
2001,0.00141511678191,0.00107600899843,0.374740569135,-55.9926387194,844.108393697,143.784551366
2002,-0.0011021601409,-0.00100321629766,0.374740569135,-66.8366358305,925.270979148,115.798550953
2002,-0.000703898138055,0.00129267359925,0.374740569135,85.7401213863,914.017439484,-24.1235449431
2002,0.00125539136247,-0.000279053901771,0.374740569135,128.370862781,647.729311961,102.647831406
2002,0.00161979487807,-0.000129588303763,0.374740569135,-25.0749562746,886.865731732,16.5440777132
2002,-0.00107353611593,0.000914999312881,0.374740569135,-84.3303809117,844.266522489,-60.9925261461
2002,-0.000179091729736,-0.00147899330927,0.374740569135,70.4574860766,752.734702286,159.915103661
2002,-0.000244326182327,0.00161864103167,0.374740569135,209.921173474,853.89592832,209.069707649
2002,0.00141210436295,-0.000112611646881,0.374740569135,98.6773245298,981.917700096,96.6709607697
2002,-0.0005043015963,0.00151524581514,0.374740569135,51.9112580679,824.540792599,-32.7931139119
2002,-0.00131812962394,-0.00103103521199,0.374740569135,-126.950113496,714.010187431,-40.6418716579
2002,-0.00128195211918,-0.000190934823242,0.374740569135,-41.4909927692,701.246322807,-26.7222741574
2002,-0.00140017906499,0.000500672075518,0.374740569135,64.4186876864,755.626011017,-53.8920631153
2002,0.000767793484498,0.000994281372567,0.374740569135,47.21492838,899.005527636,-119.653405635
2002,-0.00159361856191,0.000370785193252,0.374740569135,-61.177695412,716.473440027,-8.82559868545
2002,0.000811065574081,-0.000956586065177,0.374740569135,145.755980418,733.268418141,132.601981776
2002,0.000187086757705,-0.00176876761666,0.374740569135,89.8760248341,788.779328382,-264.773511486
2002,0.000541990961065,0.00152152389538,0.374740569135,26.3202202965,946.036205815,8.57242575109
2002,0.000965496091539,-0.00114265660604,0.374740569135,-77.8063089499,648.173881713,13.0738562652
2002,-0.00137772418769,0.000285521937359,0.374740569135,-47.8977794258,722.847505706,6.76347355079
2002,0.000550738438942,0.00140432687932,0.374740569135,144.083569284,655.764068802,87.9100429158
2002,-0.00110850207857,-0.000662833312928,0.374740569135,115.216938829,853.688740816,-20.5173214962
2002,-0.000605174527483,-0.0014585909383,0.374740569135,112.40604128,781.007048238,-58.9294659594
2002,0.000642368205946,0.00153220039111,0.374740569135,-107.146458669,871.135520045,-56.6968291719
2002,-0.00171851118528,0.000115787651892,0.374740569135,39.7908334542,695.74109756,126.631004945
2002,0.00140529096462,-0.000364873496231,0.374740569135,-3.17404272589,789.752070708,49.6251790073
2002,0.00135774787393,-0.000575746017838,0.374740569135,-72.1073822526,969.541196886,12.5648822732
2002,-0.00113899044816,0.000976944948509,0.374740569135,200.800573498,960.487450734,15.2498684176
2002,0.0012074884348,-0.000491001886164,0.374740569135,-61.5770096367,790.154518489,52.7662576951
2002,-0.00123168223312,-0.000386589145552,0.374740569135,51.6188005716,857.04653406,20.2929763408
2002,-0.00107185531144,-0.000572791161886,0.374740569135,16.0820500576,701.193373296,96.0967471424
2002,-0.000820244064021,-0.000983956667717,0.374740569135,-26.1482215941,940.653571374,-95.2971577565
2002,0.000549152559213,-0.00122490134824,0.374740569135,-61.7408931416,760.164042879,93.298326172
2002,-0.00039247747803,-0.00165350164889,0.374740569135,-52.4879625217,666.783699903,20.2253207877
2002,-0.00136073015829,-0.000765781954011,0.374740569135,122.527565003,865.647410503,93.9170711117
2002,-0.00100081987997,0.00126317899428,0.374740569135,47.1390291311,653.888807254,2.04734142333
2002,0.000142707401031,-0.001586427631,0.374740569135,-66.5783936366,772.648701604,14.4192581735
2002,0.000952591001516,-0.00123753801947,0.374740569135,-48.4580116275,582.210394118,-6.96127013322
2002,-0.00103879015945,-0.000835248688242,0.374740569135,141.715188015,944.723074538,49.5350494758
2002,-0.00135078708362,0.00033251551017,0.374740569135,10.2300112926,746.060690394,97.9138833882
2002,-0.00137356349968,0.000580531844782,0.374740569135,-59.4518741624,664.804127049,155.677550789
2002,-0.000739742592285,0.00129893502977,0.374740569135,12.0330732906,741.126813721,-133.710900546
2002,-0.000484389659945,-0.00119788566107,0.374740569135,-17.8272912246,680.26089964,-55.9935118654
2002,0.00120604655609,-0.00104865843222,0.374740569135,33.4325586529,735.262086936,-31.1748845771
2002,0.000548331618477,0.00155602154625,0.374740569135,158.582841915,822.626904981,-142.745750304
2002,-1.5241330832e-05,-0.00132084254145,0.374740569135,24.5316118318,946.864545787,-119.721112465
2002,-0.00175535052196,0.000239523711182,0.374740569135,-176.053241206,840.641750068,-50.9331461174
2002,0.000902707854084,0.00106832535742,0.374740569135,-22.0553992481,808.165243818,-169.135109561
2002,-0.00117798439349,0.000634317967775,0.374740569135,105.286149763,854.623461633,140.820010576
2002,-0.00149353202066,-0.000233185162293,0.374740569135,-16.6471747149,661.744657505,79.7125782856
2002,0.000309441649195,0.00144296780522,0.374740569135,41.8843766188,839.808300034,-51.0107392907
2002,0.00118513643574,-0.0010657370316,0.374740569135,115.232588416,782.534574744,27.9107504373
2002,0.000573335096781,-0.00163914342679,0.374740569135,20.7244341207,783.65996205,71.9070873832
2002,-0.00156811901398,0.000771180623771,0.374740569135,-81.2336375963,858.970542254,-17.640656167
2002,-0.000731255646858,-0.000975416657766,0.374740569135,165.352600815,710.765050559,-118.525665385
2002,0.000984791943451,0.00134401097319,0.374740569135,-21.9623283514,852.746217051,38.2807468036
2002,-0.00138432204079,0.000158413986486,0.374740569135,-26.7526836482,752.301734334,226.332374849
2002,-0.00124393273629,0.0010532857484,0.374740569135,-61.6505542297,930.672592656,177.200938709
2002,-0.000316536027806,0.00151439768021,0.374740569135,74.3305410523,894.904270442,-109.531702738
2002,0.000978038126262,-0.00134010500724,0.374740569135,41.6236225584,777.861755007,-239.856256146
2002,-0.00131946459979,0.00013858625844,0.374740569135,-65.6822636102,1034.75158257,146.024676903
2002,-0.00132670843815,-2.60381274293e-05,0.374740569135,282.392883763,750.918235908,-120.331011747
2002,0.0013643661743,-0.000386363689661,0.374740569135,-16.1257749617,786.181628615,22.4719263596
2002,-0.0007436006629,-0.00140495273381,0.374740569135,36.6901573438,875.673651655,-158.706043467
2002,-0.000459041014345,0.00157561952671,0.374740569135,73.9524093374,703.506587363,75.8096141386
2002,0.00174438289031,-0.000139981077122,0.374740569135,100.285371137,871.420944149,270.230967942
2002,0.00116602437681,0.000553844229531,0.374740569135,52.1543469233,714.768292808,-211.818779443
2002,-0.000911142576714,0.000950907896519,0.374740569135,-185.685147781,760.347348534,21.4914841688
2002,0.00141817062817,-0.000626799568845,0.374740569135,143.229032842,758.49157445,135.649790139
2002,0.00106541888325,-0.00137321051384,0.374740569135,125.198166113,789.375133752,94.9785988879
2002,0.00168202464025,0.000600370127931,0.374740569135,-47.5489254577,913.602900194,61.1235691873
2002,-0.000740203471341,0.00108837875578,0.374740569135,50.7923653702,851.11775191,-14.0325713762
2002,-0.00161017860472,0.000376479529106,0.374740569135,-70.6224821454,724.895688486,-37.4090044839
2002,0.000593275065782,-0.00116215581052,0.374740569135,-133.162535989,621.593852583,147.000092378
2002,0.00120572399062,0.000232184162091,0.374740569135,-173.766647299,892.874094208,-63.7111080422
2002,0.000341308902735,0.00176184143867,0.374740569135,73.0676757018,859.633382141,-35.2648520126
2002,-0.00144267066053,0.000833549343304,0.374740569135,142.197991268,764.478039677,100.595050929
2002,-0.00128797433219,-0.000493179853313,0.374740569135,-90.1624127508,834.260098899,-108.510478969
2002,-0.000118931016806,0.00173431363245,0.374740569135,-108.964205133,645.726990662,92.2382425639
2002,0.000373336476458,0.0017176583341,0.374740569135,-42.2591265641,806.345145337,92.4137397085
2002,0.000293397657249,-0.00124905079182,0.374740569135,216.931345388,784.433206155,38.399661143
2002,0.00137252162683,-0.000269896215644,0.374740569135,-1.60709680066,841.828339147,15.1653169838
2002,0.00137621431999,-0.000989216131717,0.374740569135,-2.50395195987,913.220937649,129.958717535
2002,0.000404471144638,-0.00172680128704,0.374740569135,100.617950457,802.376612793,-61.5260721988
2002,0.00113056595888,-0.000430591674185,0.374740569135,25.0907379841,844.034337231,-130.263091798
2002,0.00171794211246,-5.54182938275e-05,0.374740569135,-38.5633364442,733.496836035,-97.685762496
2002,0.000258151042418,0.00130201404568,0.374740569135,17.875221884,927.989631774,116.685523359
2002,0.00150443912887,0.000321199966178,0.374740569135,107.325781668,820.781665623,-17.5925030765
2002,0.000608202652591,0.00141015507926,0.374740569135,-13.1709581721,911.704547662,31.3565740303
2002,0.000343250300064,0.00156554012919,0.374740569135,56.4737403518,811.266605793,10.4885367134
2002,-0.00153098550268,0.000639569300476,0.374740569135,-73.2702602032,1025.19730615,-144.236486674
2002,0.00117874422832,-0.00113572469559,0.374740569135,-120.955719158,674.15767044,167.840267599
2002,-0.00157763644828,-0.000201939816258,0.374740569135,32.5840321792,750.138545603,34.0803615807
2002,0.000690819200715,-0.00103791044135,0.374740569135,-40.43708158,730.052146349,99.2170958789
2002,0.000741300129591,-0.00110088812788,0.374740569135,32.9285934683,724.985293586,31.8598735147
2002,-0.00129645610086,-0.000335139332139,0.374740569135,-10.2936608186,956.982784938,58.5957164831
2002,-0.000941014216625,0.00129296826661,0.374740569135,-16.4311708385,743.741557656,-25.2919544187
2002,-0.000857580608493,0.00110729710243,0.374740569135,-129.119667038,990.14320043,169.630377714
2002,0.00140022642864,-0.000626604369325,0.374740569135,18.0181093461,806.945488038,-125.39608996
2002,-0.00151630699936,0.000403365856372,0.374740569135,-3.85947241626,693.479573301,-102.43483554
2002,0.00129142551061,-0.00087988074512,0.374740569135,23.9283609617,779.900429105,-25.0825489998
2003,-0.000536762551596,0.00134664110572,0.374740569135,113.247834787,673.136930495,-61.6226242446
2003,0.000742942969358,-0.0010379066813,0.374740569135,-67.0456433471,708.378450685,20.8297148789
2003,-5.69284552658e-05,-0.0013869998061,0.374740569135,151.199713925,962.667343343,48.262687753
2003,-0.0015913220212,0.000668964275819,0.374740569135,2.96697744776,924.316265759,47.5648025558
2003,0.000873255311071,-0.00142382863996,0.374740569135,88.9579045315,602.96876657,70.4977841675
2003,-0.000977088969183,0.000945416923327,0.374740569135,39.6349542471,823.960056797,54.4462922851
2003,0.00155196680894,-0.000502014652651,0.374740569135,84.2766954013,833.085564306,-102.275204475
2003,0.00103747314202,0.00111880030323,0.374740569135,1.22689152693,856.008845606,34.5841958289
2003,-0.00117275070286,0.0010216734203,0.374740569135,8.39254255111,752.270584171,-101.693409934
2003,0.000966861366045,0.00141353593309,0.374740569135,86.0401688671,857.115158857,-128.262361119
2003,0.000300174725,0.00150358337147,0.374740569135,30.1211162162,707.978457612,-10.697151705
2003,-0.00136574480954,0.000630102656283,0.374740569135,-15.5294020859,888.266775679,1.82469522796
2003,-0.00178081630869,0.000116144085828,0.374740569135,-83.907081855,664.426856505,90.7096284564
2003,-0.00130426329229,-0.000438267655409,0.374740569135,69.4382256595,862.284807408,-81.5279961961
2003,-0.000501501311359,0.00158769675047,0.374740569135,68.251015183,784.068316556,-57.9929143519
2003,0.0016487543394,-0.000364696448662,0.374740569135,-53.3309850468,808.002344403,-86.6564581436
2003,-0.00139021214308,-0.000176795151283,0.374740569135,-88.3825359234,901.115484754,76.4053326067
2003,-0.00103905904213,0.00123219638162,0.374740569135,-96.5847529529,779.066073259,96.1067695911
2003,-0.000392009374735,0.00173082188127,0.374740569135,-75.5413911399,607.896668652,11.3350634938
2003,-2.93919294873e-05,0.00137057122136,0.374740569135,-265.592440665,728.669129389,153.277112932
2003,0.000124666987113,-0.00137830851563,0.374740569135,104.541684369,827.499084099,137.261160567
2003,-0.00040733361698,0.00160026388376,0.374740569135,143.592436068,909.728189239,-62.7660140173
2003,0.000197827588257,-0.00131524877103,0.374740569135,-34.9381026019,733.549522776,-57.9802174794
2003,-0.000400502582168,-0.00127737545993,0.374740569135,131.687516761,708.22341819,48.5024340194
2003,0.000986395319106,-0.00140269366251,0.374740569135,-189.777427748,817.670647361,-144.650388444
2003,0.00114896169705,0.0011407423847,0.374740569135,46.3912593381,842.116698805,10.4356335718
2003,0.000504915016968,0.00145608299787,0.374740569135,-6.34706145856,886.271463776,39.2762478921
2003,-0.0014603302805,-7.24022620072e-05,0.374740569135,103.109042446,886.80243324,20.5528889583
2003,0.0015510885907,0.000357874365558,0.374740569135,-295.359060292,613.813145573,-127.133471243
2003,-0.00161696609841,-0.00059179758815,0.374740569135,55.0326935956,890.672356832,141.711278641
2003,0.00101471905881,-0.000827035138098,0.374740569135,-118.000952129,635.072575573,-30.7422244865
2003,0.000254309432607,0.0017085482794,0.374740569135,77.9255288527,682.382512782,-39.4683004188
2003,-0.000429419027604,-0.00155413248657,0.374740569135,-55.3129809529,796.345998855,40.8067183277
2003,-0.00132999586011,-0.00106481081628,0.374740569135,25.1056166404,900.022032774,4.36117889738
2003,-0.000186850758764,0.00129287063493,0.374740569135,-12.304829332,732.699651404,-75.0095982555
2003,0.001445827263,0.00101196370141,0.374740569135,-55.218057942,924.748969673,205.061504687
2003,0.00131000003263,0.000659078807713,0.374740569135,55.0408898377,840.705590785,108.700753739
2003,-0.000674811001595,0.00141141812813,0.374740569135,191.201423957,766.63254229,-98.8922476845
2003,-2.37406029142e-05,-0.00141685886498,0.374740569135,103.636543927,826.982318014,19.3528113511
2003,0.000544731076588,-0.0013325439623,0.374740569135,41.6942101139,650.627587062,150.203806721
2003,-0.00100841058859,-0.00102671713062,0.374740569135,-32.4878015745,817.719429198,102.952859978
2003,-0.000535056508119,-0.00144589551828,0.374740569135,14.6879271052,786.273216366,-40.9384395643
2003,0.000857659782401,0.00157236746092,0.374740569135,-89.6167774829,726.378269539,-113.746840288
2003,0.00113699332135,0.000700333144851,0.374740569135,-105.330076018,801.155361029,-45.3537758909
2003,-0.000978621738083,-0.00139511663263,0.374740569135,-46.6182105485,909.020961898,-87.8387043495
2003,-0.00169506864454,-0.000369483484552,0.374740569135,-27.394153094,766.343414049,-34.7971336592
2003,-0.00140403628834,0.000877353414669,0.374740569135,115.491879335,609.713241708,44.1648712884
2003,0.000802578164587,0.00130733906016,0.374740569135,-10.7744687611,699.160708163,82.2657336226
2003,-0.00124792533182,0.000555580582585,0.374740569135,41.7235857741,828.401723484,29.8658850772
2003,8.7693838086e-05,-0.00133450777465,0.374740569135,-34.539487877,839.916662188,-198.904388156
2003,-0.000485513646265,0.0013308089484,0.374740569135,-73.5451111733,773.988050855,31.439915358
2003,-0.00125485546293,-0.000698324198693,0.374740569135,56.3155765264,735.574381063,62.3412123757
2003,-0.000526274930546,0.00169392713622,0.374740569135,16.2799579959,780.739513424,-136.334746378
2003,0.000634731291651,0.00141460380446,0.374740569135,81.2798935865,861.34108481,-178.510940562
2003,0.00175538391633,-0.000117885237634,0.374740569135,15.1676840852,911.248970395,67.6699077378
2003,-0.00127131225495,0.000236808218396,0.374740569135,17.3393176554,729.395718897,-93.8114857273
2003,0.000273928042219,0.0015137806057,0.374740569135,57.3265667607,795.041875337,41.8521853311
2003,0.00056332728375,0.00122959962586,0.374740569135,-99.016479472,729.312953581,-38.4686700667
2003,0.000162301539361,-0.00144458594392,0.374740569135,-64.9290941584,819.560197533,47.5623907955
2003,0.00090617554085,0.00116831117424,0.374740569135,-30.5236704621,811.747571511,-23.1876024292
2003,-0.00164252860875,0.000274277056726,0.374740569135,-85.8352585657,550.36137241,-337.334162839
2003,0.000705948211013,-0.00125224134939,0.374740569135,62.0334749568,783.151889753,127.68269837
2003,-0.000889322459483,0.000981158610126,0.374740569135,-153.112837555,785.517588046,-9.90992879179
2003,7.36774609204e-05,-0.0013669200454,0.374740569135,-59.1639533841,912.317601739,-77.1498089054
2003,0.000732072472736,0.00149712047677,0.374740569135,-61.9839920813,632.626860742,40.8397626364
2003,0.00151019624874,-0.000158683226918,0.374740569135,-88.5835987134,834.360827754,-24.8364549641
2003,0.00156038035758,0.000271359817392,0.374740569135,1.95543520048,790.658668514,80.4295499125
2003,-0.00100063525305,0.0011030076006,0.374740569135,-77.7333344609,786.576107705,13.2305342523
2003,-0.00107083103476,-0.000555089771569,0.374740569135,57.4213092113,904.997065808,-88.9353326342
2003,0.00137103323446,0.000736142006786,0.374740569135,121.003915567,751.463148958,105.330589681
2003,0.0011008616066,-0.000596258217575,0.374740569135,-47.8303861928,944.773597436,41.9091074119
2003,0.00057446337322,-0.00139442166726,0.374740569135,18.5629884893,1003.86205,40.0416654651
2003,-6.2371129163e-05,-0.00149639901212,0.374740569135,-97.3086598909,721.13434715,-116.109338374
2003,-0.000332811542109,-0.00151674118428,0.374740569135,58.4672649765,642.251105022,-64.0231849581
2003,0.000186444091083,0.0013324638241,0.374740569135,25.5290334138,944.390065837,-16.2784141027
2003,0.0014045199233,-0.000458242266491,0.374740569135,-89.2367076267,832.73389064,-111.005802447
2003,0.00155525581555,-0.000590925529117,0.374740569135,77.6359919922,817.410418447,45.7289358881
2003,0.00129927921006,0.000493651437925,0.374740569135,21.6825585547,831.27906366,-81.4738677625
2003,0.00050530761257,-0.00169020733664,0.374740569135,-187.826076688,872.532222008,-37.3455219481
2003,0.00156198262152,-0.000530491130153,0.374740569135,-46.5451226176,885.17690028,-46.8721408783
2003,0.00141664729742,0.000476749675419,0.374740569135,-83.7004796579,798.38775842,-73.3116918726
2003,0.000105119162869,0.00132671918529,0.374740569135,22.9102641489,899.460297213,-41.3384249372
2003,-0.000429439633987,0.00137648725145,0.374740569135,-155.621545496,915.358778032,16.164230166
2003,0.000343479519991,0.0015575615846,0.374740569135,-28.5828517092,773.743601867,9.70839365835
2003,-0.00106922486693,0.00113927324141,0.374740569135,-140.440804007,774.548298598,256.365435816
2003,-0.00122004695416,-0.00104475881033,0.374740569135,-70.3614461943,776.538227959,54.1499778946
2003,0.00117767733656,-0.000446813078644,0.374740569135,-32.6159359008,788.376346495,56.5509521272
2003,0.00154277001937,0.000729883549221,0.374740569135,-105.696033299,620.292200754,-64.2578916992
2003,-0.000123381590901,-0.00159742516882,0.374740569135,190.197706501,831.925333894,-76.2512294941
2003,0.00140321874383,0.000681090731329,0.374740569135,2.80689228154,750.938837247,-93.0781035825
2003,0.00107681465999,-0.000823816811674,0.374740569135,163.033646024,897.660177527,-130.713042965
2003,0.0012875486682,0.00122699040367,0.374740569135,109.98633705,930.2104751,-83.7536405014
2003,7.81210630733e-05,0.00150402541269,0.374740569135,69.2484253994,740.910329716,-79.5700754544
2003,0.00138067114893,-0.000104846323266,0.374740569135,217.146413725,788.9807582,61.7131787354
2003,-0.00168903581692,-0.000455441728339,0.374740569135,-58.7802943725,794.880776605,130.423631331
2003,0.00131621231665,-0.000166789193578,0.374740569135,-74.6516020995,922.633496116,18.4554492049
2003,-0.000863423622244,-0.000900581383576,0.374740569135,55.1510781102,872.821130589,-85.6207763527
2003,-0.000500797856688,0.00137703526821,0.374740569135,2.80791155622,866.443853243,-14.4389893685
2003,-0.000428478474736,-0.00116792627959,0.374740569135,-77.7529461269,618.448675644,-111.158700781
2003,0.000273025279904,-0.00155864727726,0.374740569135,170.076926363,720.405078453,-133.973736138
2004,0.00130232684867,-0.000726822754902,0.374740569135,-46.0403611765,888.198574263,34.3656899903
2004,0.00087187006863,-0.00129800451816,0.374740569135,-5.54697512651,830.11214553,-92.8336834836
2004,0.00107967038328,-0.00135561436164,0.374740569135,-38.2444935601,638.428657524,-13.558366853
2004,-0.00157300626065,-0.000302926129321,0.374740569135,8.2861503723,647.729164877,-27.1831356833
2004,0.000797034891985,-0.00126221912396,0.374740569135,-132.500148932,842.427402121,11.0547167614
2004,0.000824003321308,0.00135179441643,0.374740569135,53.8986764556,781.369479813,-15.7483895837
2004,0.000754544077688,0.00123936792823,0.374740569135,-229.493673977,856.077446093,30.5179513284
2004,-0.00114785810583,0.000544074975509,0.374740569135,19.2555116159,719.386866277,-145.817127256
2004,0.000802638157214,0.00150842235908,0.374740569135,58.6971046143,736.937719559,75.3337046738
2004,0.000328595255579,0.00174429712858,0.374740569135,-52.671827048,723.645178238,114.58175592
2004,0.00122479987826,0.00056179653032,0.374740569135,-242.032473594,849.875059815,-73.4258871352
2004,-0.00145128039378,-0.00101758059845,0.374740569135,50.8337185101,700.595313223,-55.6521860899
2004,0.00124737032413,3.92689666434e-05,0.374740569135,245.006097139,822.711440344,12.320637748
2004,0.00148355955412,0.000922097884762,0.374740569135,-94.2932733629,705.365378531,-2.93252067198
2004,-0.000530100378817,-0.00148650940925,0.374740569135,-4.37468350577,798.008707509,-126.69195313
2004,5.6399273221e-05,0.00169098299582,0.374740569135,185.626029095,798.634450347,113.349483157
2004,0.0016657600399,-0.000125286648656,0.374740569135,-48.6517055437,824.438884424,-159.686896556
2004,-0.000351285716572,-0.00125431544419,0.374740569135,114.590638453,657.862070654,-39.6861017428
2004,-0.00075642722459,0.00153850528254,0.374740569135,61.2082440401,758.736537661,-143.513909578
2004,-0.00116796821526,0.000494066273895,0.374740569135,-148.446649722,783.707280995,23.9119782993
2004,0.00149135716852,0.000589134976623,0.374740569135,-45.3912544907,778.538802373,3.76754646638
2004,0.000748147155312,0.00136464810826,0.374740569135,106.937769772,639.210049254,-142.746908475
2004,-0.000996892533348,0.000684753949345,0.374740569135,-61.9929716152,1021.26939866,-14.1992896084
2004,0.000682901122752,-0.00145928741548,0.374740569135,-85.274200563,605.825679564,-37.2283340905
2004,0.00136502974931,-0.000730497645386,0.374740569135,34.8926324618,596.071834308,36.6433383477
2004,-0.00152848714134,-0.000682822794308,0.374740569135,-162.53926367,826.171562674,11.4523409964
2004,0.000676612530247,-0.001254639171,0.374740569135,136.125514936,800.760303606,-179.845860601
2004,-0.00136500442399,0.00056108138496,0.374740569135,43.4750795962,840.343504991,-27.6061884996
2004,-0.000699453718231,-0.00105835752768,0.374740569135,-88.0679745609,643.407922712,118.306087918
2004,0.00105746946186,-0.00118619811408,0.374740569135,-37.2910583618,886.609675118,7.63137608649
2004,-0.000826243106274,0.00123905500483,0.374740569135,-1.9552929991,829.21881948,-25.7767347102
2004,0.000934296509635,0.00110972160253,0.374740569135,82.4878349775,888.882982839,196.843032253
2004,-0.00111552714534,0.00133811563652,0.374740569135,-54.5384176754,798.272340969,42.720650131
2004,-0.00173883646445,-0.000274619439031,0.374740569135,-19.1609023119,955.239091336,-71.2813609791
2004,0.00157363622796,1.96215391791e-05,0.374740569135,-3.43296153723,852.62096411,-28.6699525404
2004,-0.00115960022827,-0.000367234579064,0.374740569135,53.4003855607,1035.37646606,-57.2255746769
2004,-0.00142973001726,-0.000888934306199,0.374740569135,55.2661827634,627.721048588,-72.6662850176
2004,0.000398554415696,-0.00162808585108,0.374740569135,-84.1204538979,652.132220378,-201.486681134
2004,-0.00176833709186,0.000187869945786,0.374740569135,97.6936870731,826.764910405,118.66331443
2004,0.00114677545987,-0.00106405959789,0.374740569135,159.900678592,716.311106018,91.808613192
2004,7.08015991725e-05,0.00173937394024,0.374740569135,-66.1943519889,652.089416001,-226.229761946
2004,-0.000729954499978,-0.00104771135893,0.374740569135,-3.3886840644,655.563981114,70.0052107566
2004,0.00143722017657,0.000175676229422,0.374740569135,-5.29966193055,758.940588435,-86.6230951661
2004,-0.00130395889804,-0.00101222578347,0.374740569135,-156.450090835,782.205804924,-185.595577948
2004,0.00143388269689,-0.000546531333438,0.374740569135,33.1599047753,705.569586664,55.55104717
2004,0.000928193499323,-0.00152525817922,0.374740569135,-113.335918583,819.310893398,-45.4886937386
2004,0.000906500706812,0.00135098660903,0.374740569135,96.7621035745,900.261984216,-45.6303331364
2004,-0.000865789290958,0.00102858142794,0.374740569135,-101.764184142,871.036466484,23.0416738502
2004,-0.00110077049832,-0.000754517316854,0.374740569135,-3.00232653394,670.55836164,31.6308072054
2004,0.000105440065801,-0.00127363616352,0.374740569135,-61.1565726022,771.473807375,65.9829683499
2004,-0.000323297877772,0.00133807123537,0.374740569135,15.2220111192,743.99727062,-48.3012603174
2004,0.000164107110122,-0.00154076147814,0.374740569135,-76.0606478168,912.890271798,-40.44012909
2004,0.00125156956323,0.000441166447295,0.374740569135,-1.85815945674,571.077310094,-85.7193665968
2004,0.000997949279685,0.00092938005575,0.374740569135,-57.3145776377,941.496428508,149.382339462
2004,0.000887875053062,0.00101227247574,0.374740569135,59.6182738006,805.335491434,-54.505403969
2004,-0.00121860065943,0.000337263376943,0.374740569135,-101.256903989,562.602402794,-72.4936900549
2004,-0.00138373452676,0.000268810608766,0.374740569135,94.1966207898,690.701712191,111.268022118
2004,0.00121459248621,-0.000383608655177,0.374740569135,87.5440205243,818.374696275,94.7391946508
2004,-0.000905668636914,-0.0015087599133,0.374740569135,-122.201873885,736.175829144,-69.0422111528
2004,0.000632143370961,-0.00117711028951,0.374740569135,-16.8601286184,758.050281941,11.3624805082
2004,-0.00133546075233,-6.54545414602e-05,0.374740569135,-56.7185567158,840.961798945,-13.1781774203
2004,0.000816395929736,-0.00155508259694,0.374740569135,55.5320526129,583.640454919,19.7954730093
2004,-0.00150834589231,-0.000164169210471,0.374740569135,123.856143283,962.58603549,-36.87315556
2004,0.00140328224325,-0.000290311243184,0.374740569135,48.1353234818,904.693887924,-5.1041866346
2004,0.00104312700344,0.001352159074,0.374740569135,147.045831777,840.758461836,-31.1305034126
2004,-0.00114859898234,0.000730023982289,0.374740569135,-17.1854494066,658.910151684,-128.750016938
2004,0.00173065218221,0.000446135064721,0.374740569135,-132.838914307,805.281066419,-155.907432954
2004,-0.000573456522215,0.00157542505159,0.374740569135,-112.088722998,746.77391232,80.3015801225
2004,-0.00119425347075,-0.000963037841287,0.374740569135,-77.0355122563,756.912940968,61.3490990151
2004,-0.00134435646333,0.00105202299345,0.374740569135,-18.9043470627,914.950292296,-89.8187078552
2004,-0.00010449438567,0.00177536943208,0.374740569135,46.7654870165,867.123031708,-109.27975271
2004,0.00135967706873,-0.000601463575553,0.374740569135,67.6161347436,730.145288297,29.4410790638
2004,-0.00159644854271,0.000760147000418,0.374740569135,-74.4702096107,685.699890403,88.494744276
2004,0.000642342520717,-0.00116477114634,0.374740569135,-168.232617237,868.510714995,47.059315315
2004,-0.00127535896666,-0.00100958752678,0.374740569135,-82.3912856504,799.095775523,-67.3980235758
2004,0.0013423166737,0.000869386758605,0.374740569135,38.5897443457,893.315095645,25.1480474857
2004,0.000317766571337,0.00116061206279,0.374740569135,-37.2669710099,787.853130182,108.229536148
2004,-0.000184183324814,0.00132602812105,0.374740569135,-62.030980759,945.3946493,133.502052017
2004,-0.00136857631564,0.000121457167207,0.374740569135,112.951337766,618.440175401,-86.2029006607
2004,0.00141349107806,-0.000338643801993,0.374740569135,77.5116269012,911.825581257,-81.8304702703
2004,-0.00146899041041,0.000504998861233,0.374740569135,-145.08849274,851.755897359,116.921364154
2004,-0.000872593307103,-0.00143292956828,0.374740569135,32.2210729169,627.243140847,-40.3838320222
2004,-0.00142996595442,0.000238241855509,0.374740569135,-14.1778487955,866.775218523,-110.190946258
2004,-0.00122874395291,0.00011229545226,0.374740569135,-51.0606586803,694.97657504,-4.61007264432
2004,0.00101548296676,0.00137941421054,0.374740569135,-161.990028806,669.614195375,-12.2556473153
2004,0.00122435366043,9.17309259301e-05,0.374740569135,1.26872409472,678.955807388,-111.158164085
2004,0.00149867730335,0.000379529499289,0.374740569135,26.0950094766,782.823131094,-210.25993558
2004,-0.00141817598648,-0.000944490200541,0.374740569135,122.196755032,742.952740746,111.73482684
2004,0.00123019971661,-0.000898173063003,0.374740569135,69.6087298891,753.835416234,-94.7224670816
2004,-0.000726937473566,-0.000955922795621,0.374740569135,-25.0993151783,675.798372241,-98.4522395796
2004,0.00121437201786,-0.00109426578525,0.374740569135,174.620361574,842.521042567,2.82366105334
2004,-0.00044282475218,-0.00120066263823,0.374740569135,51.9642570886,869.169125428,154.865541877
2004,0.00135733071207,-0.000721109365388,0.374740569135,276.689163476,926.43087887,-115.458431703
2004,0.000178023724308,-0.00121832633566,0.374740569135,-25.807104296,879.876159607,-115.469384362
2004,0.00154384293879,0.000413058680101,0.374740569135,-71.7206158307,1006.34091036,19.2951568728
2004,-0.00102657722191,-0.000814382407674,0.374740569135,58.2302186431,758.441892717,-26.8523060299
2004,-0.00122446447236,-0.000174801981501,0.374740569135,-14.5819743347,1027.56398848,55.2253618145
2004,0.000527598052207,-0.0014455306841,0.374740569135,-190.198869599,762.944128814,35.4599745755
2004,-0.00039734214065,0.00163604950461,0.374740569135,-38.1795437709,786.232370627,72.3051990861
2004,0.00150253982141,0.000666934804725,0.374740569135,156.342927581,854.690742288,-9.62419078778
2005,0.00120240474475,0.000926850865296,0.374740569135,-106.256151223,661.711983412,35.8203879058
2005,-0.000497495028932,0.00114559927244,0.374740569135,-220.809946636,927.219548057,99.5671271073
2005,0.000750418318778,-0.00156881384498,0.374740569135,-56.6500881274,767.623172595,76.1502113036
2005,0.00171254334782,0.000202263077103,0.374740569135,6.80296148443,777.441349575,105.760072745
2005,-0.00141947923288,0.000308542872301,0.374740569135,23.9151153362,814.297047019,20.8124298595
2005,-0.000908723652401,-0.00130917690119,0.374740569135,2.66590192389,811.458682365,-96.2178661664
2005,-0.00150933450268,-0.000304863876598,0.374740569135,111.528465092,871.949290927,-1.05194118771
2005,-0.0003332797543,-0.00119801649028,0.374740569135,-141.127597294,812.16238937,-82.2334077948
2005,-0.000628765310888,-0.00111726939269,0.374740569135,-186.16531038,799.978895029,32.7600928091
2005,0.00118554002701,-0.001337489925,0.374740569135,78.3088688593,840.293409735,7.46627577719
2005,0.000586906174248,0.00123464360396,0.374740569135,-58.3897659755,784.369397729,197.056605609
2005,0.000368112995939,-0.00135818485465,0.374740569135,-22.9996181252,830.67530278,51.6182629007
2005,-4.6683042583e-05,0.0014965842784,0.374740569135,-150.063966892,796.707484606,-144.247515995
2005,0.000470278064076,0.0011332788031,0.374740569135,64.6782414929,778.610406169,26.3504590597
2005,0.00154730563323,-0.00070004021747,0.374740569135,-138.89514141,704.675349071,147.097044564
2005,0.000987821438329,0.00114617762533,0.374740569135,-47.2870674665,788.893736418,-130.63128417
2005,-1.55200104547e-05,0.00141401856444,0.374740569135,63.3460203252,685.66066486,-92.5889111392
2005,0.000178653877624,0.001718461413,0.374740569135,71.9390664821,830.636654002,-39.0741172033
2005,-0.00047480143036,0.00151596771127,0.374740569135,126.582275537,831.921363834,190.275484813
2005,-0.00101229263856,0.00144835949965,0.374740569135,37.927982454,488.318159083,36.7986674703
2005,-0.000840345103598,-0.0013490183577,0.374740569135,66.4852223461,645.389968509,-103.795727905
2005,-0.00127069611498,-0.000436685497105,0.374740569135,21.1922612295,938.179500312,-3.16983796731
2005,-0.000153166255063,0.00178200834462,0.374740569135,-140.644516673,853.082500013,107.090842608
2005,0.00153185041536,-0.000460281491859,0.374740569135,-99.5572626194,756.586384146,-284.157228852
2005,0.000678245601818,-0.001106503686,0.374740569135,-117.088951989,887.417179523,36.5162337398
2005,0.00124925872803,0.00102306178993,0.374740569135,259.344201999,832.569173839,41.0566537562
2005,0.000581025546825,-0.00144666201953,0.374740569135,66.9001287135,890.799103902,-19.9221899363
2005,-0.00143466958088,0.00103415248664,0.374740569135,4.53223798448,863.773629488,-83.2558838094
2005,0.000513147131308,-0.00138087820489,0.374740569135,179.960900534,533.256291705,-52.5027189367
2005,-0.000505041859243,0.00163392771671,0.374740569135,89.0177696017,887.597249164,27.2746778875
2005,-0.00097581806387,0.00133734690405,0.374740569135,-67.40975778,861.944147045,1.45435222734
2005,0.00159627796148,-0.000727609487942,0.374740569135,-182.065613644,1001.00692688,-95.238268016
2005,-0.00103993759792,0.00108030283873,0.374740569135,81.4335385689,839.71673645,-3.13060938084
2005,4.74825433636e-05,-0.00129508947545,0.374740569135,-8.91653490919,842.777399212,13.2273527171
2005,0.00137167126093,0.00047532589917,0.374740569135,115.890051029,909.87058704,149.468867894
2005,0.000530622327153,-0.00114257620924,0.374740569135,77.7050220978,821.848535702,-109.19901996
2005,0.000519492044013,0.00141080145232,0.374740569135,-126.496820573,898.042480658,-11.3512509682
2005,-0.000500041509148,-0.00169284810458,0.374740569135,48.8929754333,791.971295122,98.0366891061
2005,-0.000938134868399,-0.00151481937514,0.374740569135,-143.410203876,945.407568424,-59.2594114762
2005,0.000405627489987,-0.00127949944389,0.374740569135,-9.88956459805,846.627581609,-45.9096500829
2005,0.000221947263758,-0.0015427783961,0.374740569135,-56.4299422926,804.139506788,-44.8679313946
2005,-0.000346807352382,0.00151281463624,0.374740569135,62.8924207519,790.100965367,27.6224300899
2005,-0.00172591732053,-0.000220292900787,0.374740569135,89.3269287554,677.754137878,-4.64066627465
2005,-0.000633920869132,-0.00138951489015,0.374740569135,-209.288626188,877.276118775,67.8171313393
2005,-0.000383303728028,0.00165906416316,0.374740569135,-93.6904777881,725.362046343,131.379001288
2005,0.00149592695749,0.000369696476936,0.374740569135,27.4519289044,876.793551356,-30.119889173
2005,-0.000809316008979,-0.00103412952998,0.374740569135,56.2411296702,871.112644627,-48.3562875629
2005,0.00029740329216,-0.00143514966122,0.374740569135,-18.0663738238,810.017386759,73.3617386323
2005,-0.000567732286551,0.00111147229428,0.374740569135,-67.557120038,779.670429521,56.6545597673
2005,-0.0012921543203,0.00023543716752,0.374740569135,7.28843062893,732.824489993,-178.079936663
2005,0.000320862890857,0.0017300227695,0.374740569135,-251.006186014,707.323961513,-158.427718281
2005,-0.000301037891974,-0.00126352906301,0.374740569135,70.0501982757,861.22740427,37.9155277595
2005,-0.00129097574688,6.25447622969e-06,0.374740569135,19.1346360435,780.610595139,18.2445098766
2005,0.000977757943769,0.000814955891872,0.374740569135,58.8414151571,848.933781352,-2.92007002818
2005,0.000139930003765,-0.00174199707266,0.374740569135,-68.5611350416,875.500882283,-20.4517130805
2005,0.00127862962625,0.00101046163121,0.374740569135,-201.098438246,745.486588352,80.6594588155
2005,0.000869420733481,0.00152877539454,0.374740569135,40.8559372578,806.461333314,19.2624992465
2005,0.000402812563782,0.00172792983247,0.374740569135,51.8764571144,844.775328438,-15.9507984194
2005,0.000476704682348,0.0012961047501,0.374740569135,3.40534220671,666.839067108,205.027506119
2005,0.00108016731761,-0.00109325688423,0.374740569135,-23.9988666099,683.072865816,-59.3105025881
2005,-0.00170114975791,0.000461232024328,0.374740569135,-62.7514858166,765.358539005,16.2012668845
2005,0.00146896707623,0.000284962758149,0.374740569135,-29.2662231882,844.841226675,-104.483623947
2005,0.000707582352626,-0.00155739729191,0.374740569135,-15.5164803882,711.363713379,-81.4411693217
2005,-0.00071165894356,0.00105512836266,0.374740569135,136.176326917,684.236875996,-163.576920266
2005,-0.0011760166846,0.000565175892719,0.374740569135,35.17691541,815.632746477,-8.06069300364
2005,0.0017348281087,-8.23964222674e-05,0.374740569135,-162.159198984,858.970838849,-43.4846415763
2005,0.0016418436794,0.000342300122411,0.374740569135,-39.8906142055,865.988813581,33.8425133771
2005,0.000466005901968,0.00150874679422,0.374740569135,73.3445030483,820.29037907,-56.1145717589
2005,-0.00124588190335,-0.000828820014864,0.374740569135,110.14216536,848.373717775,172.826207016
2005,-0.00060232302788,-0.00137778967432,0.374740569135,310.377406885,733.255432046,171.27854645
2005,0.00137491959063,-0.000207311265435,0.374740569135,54.8067657973,728.308385648,-7.47091243847
2005,-0.00166818517672,0.000637457649118,0.374740569135,-63.3142426283,969.063574306,-22.597603566
2005,0.00029462241236,0.00131992592105,0.374740569135,-86.0726788111,691.152958487,197.121475329
2005,-0.00130989920956,-0.00118537054702,0.374740569135,-191.398882574,744.825795773,50.6675523204
2005,-0.000811639025183,-0.00104548165128,0.374740569135,119.795990538,956.85277057,0.492491928962
2005,0.00134554220883,0.000430754635101,0.374740569135,-29.6044187086,861.859425429,-29.9661726679
2005,0.000744505072823,0.00126818906194,0.374740569135,16.9910140988,844.752347806,92.8849349935
2005,-0.000473655548892,0.00143301316292,0.374740569135,87.5195019675,709.183614804,-130.13646272
2005,-0.00158749183464,-9.55359820833e-05,0.374740569135,-186.110119376,852.520590824,-72.9802583186
2005,0.000936616262741,0.00126251584397,0.374740569135,-153.09053699,712.966430652,-44.0727085507
2005,-0.000231994734583,-0.00122130599537,0.374740569135,-218.535027601,879.484723814,37.456357587
2005,-0.00165178519281,0.000361558046726,0.374740569135,-40.0894135319,777.244545519,-37.7234163671
2005,0.000939250161131,0.0014371789586,0.374740569135,-67.8292901341,976.231388673,-12.0749138346
2005,-0.000775362196341,-0.00123897491079,0.374740569135,-17.1923390387,748.774317407,7.31963747481
2005,-0.00125244064892,0.00103751132171,0.374740569135,-141.627861595,959.834064453,-110.215490482
2005,-0.000760627049725,-0.000996765637167,0.374740569135,-135.32461084,814.549992252,70.8495353954
2005,0.000656732980362,-0.00108842773295,0.374740569135,-55.3326470688,636.460621204,-2.16961683705
2005,-0.00109109080939,-0.00131734675318,0.374740569135,-17.6492908731,835.007652758,6.33231022262
2005,0.00118377554876,0.000311790558825,0.374740569135,-84.4657430841,723.476595146,-63.9800775564
2005,-0.0013671751923,-0.000782365168962,0.374740569135,-144.549625172,722.026412787,-170.662996971
2005,0.00112923442325,0.00049534526216,0.374740569135,17.0428455553,773.103078035,-133.766704333
2005,-5.80742615914e-05,-0.00130611729013,0.374740569135,-38.681539203,663.394029916,-22.5567771888
2005,0.000134892676022,-0.00129989182959,0.374740569135,-126.143483853,723.975582349,80.9679028347
2005,0.00137978788424,0.000914629759611,0.374740569135,117.012931336,773.467166327,165.396788405
2005,-0.000525920633607,0.00170056971911,0.374740569135,58.4953532652,836.583407275,-45.2250167561
2005,-0.00137150552564,0.000970271104174,0.374740569135,31.1872807459,865.685870082,-18.8675800314
2005,-0.000413484759502,0.00154743700186,0.374740569135,40.9474522897,672.024503259,-114.416456126
2005,0.000353727754184,-0.00153416442783,0.374740569135,-76.9705803323,953.477571946,72.4559280835
2005,-0.00127496407532,0.000615507108069,0.374740569135,-102.261666255,792.464898973,-35.1287503356
2005,0.00157151641048,0.000617043250907,0.374740569135,159.170746568,1019.05586857,-35.8311340569
2006,0.000358684512622,-0.00146966086064,0.374740569135,-55.196506922,757.663511281,11.7915179325
2006,-0.000618753231682,-0.0015427852568,0.374740569135,84.7024036709,883.062642065,-12.8775172371
2006,0.000851294449819,-0.00111934400302,0.374740569135,-136.796236633,839.500298128,-143.532849987
2006,0.0016625642911,8.26800603804e-06,0.374740569135,1.02854565587,734.084652498,25.4682474685
2006,-0.000244713890337,0.00141171236353,0.374740569135,-77.0677363773,712.768239039,60.2434130873
2006,-0.00141996381903,-0.000384376782377,0.374740569135,-26.5904317855,847.136625929,32.716014501
2006,-0.00156669892097,-5.58901538306e-05,0.374740569135,114.27590699,998.609078468,-142.182711758
2006,0.000460467053592,0.00157912727916,0.374740569135,44.9379190914,847.543064861,-94.225020616
2006,-0.00154095206047,9.77580546311e-05,0.374740569135,205.272523529,855.495440769,-70.278686573
2006,-0.00120332186784,0.00133382625575,0.374740569135,-135.693763331,818.75097291,-54.1794433779
2006,-0.00155040405092,0.000286525420981,0.374740569135,52.6725658588,833.774757552,133.051756946
2006,0.000327593717342,0.00162423487742,0.374740569135,-74.1972784765,735.460369288,-0.383173152212
2006,-0.00120645327103,0.0010171174797,0.374740569135,-55.7165977191,802.459209755,-69.0945138566
2006,-0.000809769557252,0.0015342676444,0.374740569135,90.742432895,887.386209818,37.3507525572
2006,-0.00151799961438,-3.64610819429e-05,0.374740569135,-68.3906275478,783.006539031,48.1357045429
2006,0.000180957264926,-0.00129325262544,0.374740569135,-16.6592494653,843.881597665,68.1841495355
2006,-0.00142627054831,0.000235546953993,0.374740569135,-3.13100692617,786.606096221,-55.0456732925
2006,0.00133667137945,-0.0009213511078,0.374740569135,-90.8343592057,903.592774506,2.2837086753
2006,-0.00128465224137,-0.00066536895421,0.374740569135,130.639634392,1029.37838616,-31.4989236859
2006,-0.000880595303012,-0.00143009348897,0.374740569135,-31.2380108782,662.90317827,-90.4484863716
2006,-0.000616600375189,-0.0013405585164,0.374740569135,-39.5771614486,824.285789976,-244.18264525
2006,0.000999928093702,-0.000808240362356,0.374740569135,-118.343478829,856.523330439,-66.668630621
2006,-0.00104829447971,-0.00122160578796,0.374740569135,-16.4275460232,893.191383012,85.708381619
2006,0.000893169102564,0.000985675329724,0.374740569135,97.3387507097,771.55522498,-14.3836994577
2006,-0.00109371088938,-0.000839927756999,0.374740569135,-294.708692465,792.457360142,57.0683343103
2006,-0.00148003542298,0.000443222956556,0.374740569135,11.9031643462,898.519323168,135.709469638
2006,-0.000117974526829,-0.00163540005855,0.374740569135,92.7752578923,696.768911007,-5.68152353136
2006,-0.000368266513313,0.00136481298836,0.374740569135,41.8863307212,810.172253173,0.813570189579
2006,-0.000734149683203,-0.00143729228455,0.374740569135,-9.46068292611,890.724745721,-14.1938691053
2006,0.0012794891651,0.00054988162863,0.374740569135,-87.157621521,808.572230119,90.835341523
2006,-0.00074951904199,-0.000940538298432,0.374740569135,97.2114012003,870.195437682,203.199132607
2006,-0.000252230057936,-0.001454018863,0.374740569135,150.786464622,691.183857741,44.7490754075
2006,0.000629238260951,-0.00118135070834,0.374740569135,8.23116197213,906.277342715,-153.539081189
2006,-0.000631375958411,-0.00105448613322,0.374740569135,-30.3093636436,820.021689631,16.04362477
2006,-0.000474724422302,0.00171502964132,0.374740569135,-140.831252761,909.977185169,191.243146248
2006,-0.00105909928423,0.000597846744334,0.374740569135,13.5548090741,913.781685684,18.425132356
2006,-0.000299785670928,-0.00133218449108,0.374740569135,88.1344946746,711.711663176,-3.75000249958
2006,0.000135742478267,-0.0014639570805,0.374740569135,3.96541011323,845.147346179,117.944208965
2006,0.000227178586841,-0.00139445915872,0.374740569135,223.521242018,852.167138459,-180.199512701
2006,0.00104526060904,0.00145202726387,0.374740569135,44.3558153503,768.346080794,-141.611856492
2006,-0.000943380371573,-0.00108163545076,0.374740569135,-30.2274992199,729.205893107,64.8795964779
2006,-0.00106163378459,-0.00117711718252,0.374740569135,-252.556259036,898.221948048,-98.4512636151
2006,0.0012690925517,0.00087325678509,0.374740569135,-39.450597269,884.214837563,-14.8403842517
2006,-0.000735319531171,0.00095343162671,0.374740569135,18.5949104131,707.344305386,-153.471827351
2006,-0.000120336921643,-0.00154104821034,0.374740569135,14.9616743956,723.640123666,-11.2357680604
2006,-0.00158841975109,1.32557172361e-05,0.374740569135,-42.2559439607,648.816446673,18.3017872779
2006,-0.000552833087749,-0.00111455589516,0.374740569135,201.911639278,794.249794732,88.8064173546
2006,0.00158800327521,0.000726891790557,0.374740569135,26.3538529591,933.309710574,-110.6229581
2006,-0.000959057325556,-0.00106451832667,0.374740569135,64.4252935272,804.381848633,-95.7246753905
2006,-0.000931059099492,-0.000944461864219,0.374740569135,44.5416515493,839.431430194,41.5902103652
2006,0.00146192580894,-0.00095876625176,0.374740569135,-85.7337363146,891.975425089,26.4349650763
2006,0.00160921210283,0.000629109253003,0.374740569135,126.521043147,724.971805205,56.4362423789
2006,0.000269264829972,-0.00168419917547,0.374740569135,20.865519812,672.587011804,-15.7329255993
2006,-0.00103423651329,-0.00061480052561,0.374740569135,-78.9255099709,714.354718555,-117.543860491
2006,0.00122813423875,-0.00013632469871,0.374740569135,29.4395571546,696.607386686,-60.1445832123
2006,0.00121438683349,0.000752566691202,0.374740569135,-77.0273263054,806.351665131,51.9279859848
2006,0.00131350055362,-0.000593546020308,0.374740569135,96.9539111541,598.084723878,-38.9908322232
2006,0.00128356247371,0.00011648991183,0.374740569135,16.0068365156,842.585910814,-38.7931734985
2006,0.00124941388789,-0.000921961518311,0.374740569135,-168.939420477,681.698175685,-16.8790442769
2006,0.00129268116716,-0.000246906133362,0.374740569135,-202.371946851,773.821633792,162.4240553
2006,0.00113260454646,-0.000640244741053,0.374740569135,-12.1843417533,791.549543743,119.586119472
2006,0.0007228812016,0.00103064044613,0.374740569135,26.2979066239,739.174476823,83.800891589
2006,-0.00146225654179,-0.0010100235517,0.374740569135,104.398318204,856.976349536,116.002732681
2006,-0.00151271044805,-0.00028178359185,0.374740569135,-53.1167061717,697.262186072,48.3753830396
2006,-0.00134556089929,0.000402637494925,0.374740569135,157.396351699,925.87737227,84.7787045864
2006,-0.000880038009746,-0.000964729507609,0.374740569135,8.57077605536,858.056825961,-164.488173061
2006,-0.000254329659598,0.00176283278203,0.374740569135,-41.8136051839,750.114037034,65.3880102421
2006,-0.000186582230516,0.0014600283666,0.374740569135,-48.067093226,838.374741495,-18.2067678386
2006,0.00136815345361,-9.66046024824e-05,0.374740569135,-37.8054255199,734.56253076,-62.8926640402
2006,-0.00066151116876,0.00148973741117,0.374740569135,-104.867470267,896.893500275,-48.4243011178
2006,0.00028120407434,0.00132142770227,0.374740569135,-79.9490488278,950.186575549,-59.670908712
2006,0.00122667911998,0.00122836169191,0.374740569135,-1.42269331113,731.702659091,26.416851031
2006,-0.00177486557772,-9.14267695745e-05,0.374740569135,136.367221916,759.016815885,13.8590588322
2006,-0.000954403971097,0.000983357066849,0.374740569135,-40.1615090334,886.527315856,14.942999558
2006,0.00161326937485,0.000123131052452,0.374740569135,-14.2341941782,733.66829545,99.9882044906
2006,0.000246864709696,0.0017420061752,0.374740569135,103.525278379,783.481225649,-87.1421503769
2006,-0.00105191816744,-0.00112670490459,0.374740569135,192.079763392,672.786576003,-31.1004728124
2006,-0.00131124853805,0.00111984643302,0.374740569135,12.3641399845,880.765892661,7.94620129361
2006,0.000755330957302,-0.00146454252628,0.374740569135,5.91194137094,866.98025988,69.744444696
2006,-0.00149370711239,-0.000407373064892,0.374740569135,135.027561945,673.993440023,-85.53556657
2006,-0.00143835474328,0.000299690228773,0.374740569135,141.88043348,605.448411763,-24.7117862226
2006,-6.15481763992e-05,0.00126517436962,0.374740569135,119.99037026,754.565324871,-46.8871488245
2006,-0.0011493066299,-0.00108210203099,0.374740569135,-33.3925672499,626.215822103,14.4738512748
2006,0.000314266892904,-0.00148108428977,0.374740569135,-8.39791221398,698.074192054,-81.0883900388
2006,0.000776212285015,-0.0013664933239,0.374740569135,-24.8829440905,777.067585723,176.26635751
2006,-0.000640752180449,-0.00112130141138,0.374740569135,67.6810532157,763.301671173,18.1169126122
2006,-0.00121213915764,-0.00128113685062,0.374740569135,-127.450701918,848.017100701,90.3858990119
2006,-0.00151896497446,0.000944171136482,0.374740569135,127.726686447,779.319702273,-46.5205502486
2006,0.00041749254818,0.00135217457091,0.374740569135,30.4133563635,701.927242151,-102.957039949
2006,0.000930575847825,0.00122068631229,0.374740569135,137.775244736,911.493413536,-91.2047668998
2006,0.000722105722019,0.00151182874576,0.374740569135,-118.566074865,698.196181627,73.3750668825
2006,-0.00158932813146,-0.000346476816539,0.374740569135,28.7032345739,866.378868244,77.2556268391
2006,-0.000644401572072,-0.00136350992776,0.374740569135,129.157050662,789.643008531,87.2109954506
2006,0.000999856334231,-0.00137771408587,0.374740569135,255.980247207,761.995157181,-73.7087083649
2006,0.000397391928934,0.00126719987774,0.374740569135,102.300869415,782.239109977,168.925618543
2006,-0.00135077640792,-0.000869617471186,0.374740569135,6.934624898,857.546082753,12.4941571745
2006,-0.000611522056056,0.00159461324047,0.374740569135,166.106220239,772.855604363,26.1556252724
2006,-0.000527492894704,-0.00134279292701,0.374740569135,28.7719624069,680.442395039,76.7010661746
2006,0.000994603962287,-0.000722526841375,0.374740569135,97.3600428907,699.434950497,-39.3829226666
2006,0.00159695477462,0.00033012630257,0.374740569135,100.902420557,810.135021346,120.595713357
2007,-0.00139983179745,-0.000430426069928,0.374740569135,-79.8066619175,940.757043513,-121.800278113
2007,-0.00127926466568,-4.12661792024e-06,0.374740569135,52.6462421911,796.375190829,-105.42235795
2007,-0.000964106753247,0.000886176951794,0.374740569135,-140.141462739,662.022436648,-124.863722267
2007,-0.000653001946324,0.0013003620108,0.374740569135,56.2414364352,651.107911389,93.34463244
2007,-0.000559886859391,-0.00110068013158,0.374740569135,-127.072667519,892.923555518,88.4892742565
2007,-0.000637774669352,0.00126490397206,0.374740569135,-47.6778506067,833.004665279,-68.1149286352
2007,0.00109411668871,0.000813715360701,0.374740569135,82.1303433236,767.528474066,-15.3229041889
2007,-0.00133135443507,-0.000267204247486,0.374740569135,38.8441993368,849.875966058,-3.33061368462
2007,0.000985109680119,0.00144471093632,0.374740569135,39.6083021341,854.820936504,15.5271575646
2007,-0.00133014988427,-0.000889829193461,0.374740569135,81.2756188956,776.971586785,83.1473757229
2007,0.0014381656352,0.000666912672275,0.374740569135,189.217731878,770.432963551,145.15127156
2007,0.000416826897029,-0.00116001591837,0.374740569135,-70.2437249484,940.414693077,24.5918354859
2007,-0.00156509265803,-0.000564740330339,0.374740569135,-47.1676216086,902.075456382,0.542334378439
2007,0.00142250844655,-0.000223297557806,0.374740569135,80.816864027,875.471553115,54.4548841184
2007,0.00150656102175,9.10261048201e-05,0.374740569135,-57.0762155631,856.436764311,204.741496644
2007,-0.0013434110173,-0.000325048419341,0.374740569135,-122.259935463,783.418717521,41.2909746005
2007,-0.00113973033795,-0.000870055130343,0.374740569135,-84.7580479833,900.324235916,48.207274307
2007,0.00155846214284,0.000458458150333,0.374740569135,-128.776576785,755.735630299,-84.2546091928
2007,-0.000827165358571,0.00149053026022,0.374740569135,58.3754919836,815.770554298,-63.7011796715
2007,0.00104392091557,0.000703534129092,0.374740569135,70.0196524559,809.787479289,10.7570561391
2007,-0.00125231289182,0.000207260813715,0.374740569135,-72.9629824118,871.231033921,91.8092499789
2007,0.00131428168156,-0.000529785387123,0.374740569135,78.7630168334,765.709732985,21.9474258209
2007,0.00127726821634,0.000308668606272,0.374740569135,-9.7018200516,809.529110519,-27.7104739313
2007,-0.00169042392022,0.000531135859684,0.374740569135,187.158199414,706.669122872,-15.5795157729
2007,-0.00121600194065,-0.000937103309692,0.374740569135,28.4120203744,630.408713709,73.0940152761
2007,-0.00111332223576,0.00103181991773,0.374740569135,-92.495652692,743.024587497,-95.3812718935
2007,-0.00121704736384,0.00130192845828,0.374740569135,50.7878822281,794.322208822,47.8221408419
2007,8.74450911788e-05,0.00143740387722,0.374740569135,186.909584374,737.998015294,12.1590621961
2007,-0.000231769383267,0.00130827407047,0.374740569135,55.146433169,747.427610029,-117.829383035
2007,-0.000276496990734,-0.001241378979,0.374740569135,-46.4763108024,700.479627775,-85.1561011829
2007,-0.000608149473122,-0.00167588061878,0.374740569135,-25.0271986227,759.53816659,-53.2039021018
2007,0.00118395485051,0.000311319818772,0.374740569135,-50.94187252,858.844426708,129.406150015
2007,0.000795789129341,-0.000976103713624,0.374740569135,-143.70535081,838.908075981,-72.4948417978
2007,4.35553743936e-05,0.00147054757492,0.374740569135,50.3689982625,765.061770877,-69.9059105074
2007,0.000366148632958,-0.00137409619949,0.374740569135,-252.63496257,621.233426178,-98.8894006681
2007,-0.00119234174002,-0.000439329509264,0.374740569135,-59.0488239503,859.218378433,-25.3047842972
2007,-0.00141976400409,-0.000294480159068,0.374740569135,6.33998170638,808.872153771,46.903361679
2007,-8.71252773083e-05,-0.00126206374534,0.374740569135,-93.2825405645,802.451285609,51.7926399344
2007,-0.00116609305692,0.00118210953927,0.374740569135,50.1716010633,786.839151911,-25.2119912455
2007,0.00113698137897,-0.000610645567108,0.374740569135,87.8851855722,760.902409652,-66.8075164004
2007,0.00154078608085,-0.000527803409768,0.374740569135,-47.0250132985,836.093821024,111.184153076
2007,0.00114724156836,-0.00118515911128,0.374740569135,-46.7632678148,923.478405965,50.5396521024
2007,0.00166625602174,0.000510684179194,0.374740569135,92.8541472937,729.368762162,62.5118739334
2007,0.00161877054485,-0.000427803393924,0.374740569135,-105.300200111,657.340374621,42.006223034
2007,0.00122863658512,-0.00099335641598,0.374740569135,17.1127779831,759.687286849,-7.77324103789
2007,0.00111767675158,-0.000464373554693,0.374740569135,98.5558021528,819.013567003,-47.5369713907
2007,0.000253201110843,-0.00167935627786,0.374740569135,-7.74430304959,749.931357278,-24.1176224825
2007,-0.00167044110492,-0.000223442263862,0.374740569135,-139.804826007,657.649298912,58.0999444581
2007,-0.00104376033292,0.00123837242245,0.374740569135,33.3673678244,919.444753169,75.5667237088
2007,-0.00133603286893,0.000471963211949,0.374740569135,80.4823770576,855.065325107,-58.4099910144
2007,0.00128479921501,0.000720915641274,0.374740569135,5.30599850507,771.378759241,63.6952447984
2007,0.00130314643029,0.000371048513914,0.374740569135,-92.10711071,553.167587611,130.818696946
2007,0.00107522274976,0.00133891135851,0.374740569135,-138.988680853,762.485410659,38.239151916
2007,-0.000940881400819,-0.00143757958661,0.374740569135,55.0858397488,846.242420457,-179.673765539
2007,-0.000963622227099,0.000855252697753,0.374740569135,29.9577375704,863.678075082,101.230212399
2007,-0.00101970539619,0.00118467180043,0.374740569135,153.905069736,900.9918487,88.5497641716
2007,-0.00169616134252,-0.000434276317941,0.374740569135,74.8526102068,724.419495109,108.033162819
2007,0.00131894172683,0.00051330572901,0.374740569135,150.076315715,811.521892844,39.9320674973
2007,-0.00033970632848,-0.00169670231947,0.374740569135,56.9880055203,831.536837992,53.8207084001
2007,0.000996948999565,-0.00114897288856,0.374740569135,-73.7713956785,778.868160406,6.37455039582
2007,-0.00115502423169,0.000837819514995,0.374740569135,5.67710916492,631.796648038,-59.442752869
2007,-0.00124017855596,-0.000657477540855,0.374740569135,-21.0163732821,722.070868819,71.0214483726
2007,-0.00129950791297,0.00104383455279,0.374740569135,-72.7370727957,968.904486471,-40.3046349703
2007,0.000494621330319,0.00120228412553,0.374740569135,62.9227326022,720.494912898,124.95204132
2007,0.000876955549554,0.0014467098013,0.374740569135,-116.415617909,889.062603334,-77.9439453028
2007,0.00121512922942,0.00103865564789,0.374740569135,50.0624276412,765.117904549,-202.810035761
2007,0.00171216199097,0.000138515552362,0.374740569135,139.992835823,1044.81865111,-102.338694202
2007,-0.00129219030376,0.000400552892153,0.374740569135,-56.037799458,784.401397805,66.8830426272
2007,0.00108906601153,0.000549249419843,0.374740569135,21.5380106677,815.21713113,-137.414639216
2007,0.00131160703369,-0.00101963479784,0.374740569135,232.315326468,816.864607585,-44.9512157284
2007,0.00160978593166,0.000678236209911,0.374740569135,-6.88355195008,733.721025484,25.2753898351
2007,0.00119526198471,-0.000951026581577,0.374740569135,-60.6442240279,757.164737428,-35.5017979925
2007,-0.000474448228058,0.00132950149265,0.374740569135,45.8765860097,935.652096993,151.548231687
2007,0.000507382511072,-0.00169927004032,0.374740569135,38.5620549056,993.496497553,69.864533857
2007,0.00107071716637,-0.000591092562872,0.374740569135,-12.2316269352,858.28936545,44.3997190417
2007,0.000669812112018,-0.00156327141808,0.374740569135,-34.739748401,641.729532048,83.6629122209
2007,0.000783416857924,0.00115706944007,0.374740569135,-94.9609542233,1005.34963235,-24.3895578026
2007,0.000988705847142,0.00128416017519,0.374740569135,183.103330957,867.558745616,67.6625576142
2007,-0.000511176381535,0.00126293989296,0.374740569135,95.0607257816,701.604782181,48.3511248903
2007,-0.00136962822753,0.000244626554925,0.374740569135,141.065970437,819.025690084,-82.0021824859
2007,0.000815748584216,0.00130757320528,0.374740569135,31.6082088807,770.521199189,-74.7438530018
2007,0.00037215070564,0.00151633273532,0.374740569135,2.38167256337,799.417227097,-44.031019554
2007,0.000194018221982,-0.001342493163,0.374740569135,142.102406141,909.238903906,46.5938227257
2007,-0.00120491610818,-0.000766205407501,0.374740569135,38.1849380444,689.365491441,-3.44798124926
2007,0.00145060866239,-0.000464110623651,0.374740569135,-21.4767905697,794.955886689,136.469287732
2007,-0.00101342079159,0.000901340549079,0.374740569135,157.913818482,796.524032491,37.9096035553
2007,0.00101436321976,0.00116021847056,0.374740569135,163.016139053,889.540816589,106.912944186
2007,-0.00171042689892,2.29304485096e-05,0.374740569135,40.9930034138,904.4503699,-27.9787923361
2007,0.000828936703407,-0.00149469993921,0.374740569135,139.011651722,1049.44689145,-26.1425123243
2007,0.00121497634863,0.000411137528896,0.374740569135,-191.047075146,952.476402662,-4.53129888043
2007,0.00142905177106,-0.00102277654558,0.374740569135,205.893137201,563.378191328,161.024265848
2007,-0.00103248920204,-0.000754360651947,0.374740569135,-11.8488742204,823.673095243,105.045331846
2007,0.000479287758902,-0.00168056511222,0.374740569135,-63.2826274175,896.130204037,127.248912747
2007,-0.00136630003129,-0.00086884316013,0.374740569135,33.6571187664,864.486217265,47.9429468735
2007,-0.00120112039988,0.000981390404204,0.374740569135,62.0446008973,858.22387228,102.811453049
2007,-0.00125583199156,-0.00011324702192,0.374740569135,27.8232664722,555.726970889,-62.4741350224
2007,0.000374451748641,0.00162992176477,0.374740569135,-263.937647136,815.514604137,19.541117435
2007,-0.00134343475799,0.00082433878831,0.374740569135,87.3835040866,871.238387042,-58.4937413622
2007,0.00151845405587,-0.000414489511344,0.374740569135,54.4436337651,702.750099141,-28.4007532285
2007,0.000535034714653,0.00120919514359,0.374740569135,24.0900620423,547.295151611,-152.670545134
2008,-0.00158108407552,-0.000361943677332,0.374740569135,-242.227889425,777.280210508,-248.589288997
2008,0.00036719900584,-0.0012602864549,0.374740569135,-16.1596233304,816.792666694,19.9502639374
2008,0.000819458728012,-0.00112191495417,0.374740569135,11.6110724443,900.651531956,-150.992332284
2008,-0.00154318377068,0.000457818339594,0.374740569135,53.4444277374,939.505959225,28.9490587352
2008,-0.00130535828862,-0.000822585296084,0.374740569135,82.0682563109,891.982205148,-83.3446508787
2008,0.00120233265937,0.000969142384166,0.374740569135,-11.1719341619,824.655007032,97.2229927868
2008,0.00122445394194,-0.0010275425974,0.374740569135,-7.88894713153,918.45114819,92.4289117406
2008,0.00131576551023,0.000228031820343,0.374740569135,65.4563937415,724.632217323,-50.7449580932
2008,-0.00119388486999,-0.00073411235728,0.374740569135,30.6638076152,754.440279013,57.102932186
2008,0.000617348003633,-0.00142700931493,0.374740569135,117.045864561,815.807696257,174.777103866
2008,0.000532950415846,-0.00151557543238,0.374740569135,75.8653997213,714.467709864,-79.1364401707
2008,-0.000290614868696,0.00142779687242,0.374740569135,52.7992834621,881.258717652,-43.6734030683
2008,0.000113002780384,-0.00169158590699,0.374740569135,-82.9605027289,776.256133905,-59.6350025517
2008,0.00120452656728,0.000840540016072,0.374740569135,-190.383434356,913.31082265,97.6272245879
2008,0.00146397566882,-0.000937142011683,0.374740569135,7.24508283169,680.47201696,40.1012074754
2008,0.00043872433982,-0.00134508144407,0.374740569135,74.1667699794,952.935689958,-89.9347178821
2008,-0.00154631000405,-1.26631197713e-05,0.374740569135,-177.219421442,783.128352693,75.9142476163
2008,0.00102630648359,-0.00123211389382,0.374740569135,77.6774328764,614.053122248,77.5858860459
2008,0.00069345567361,-0.00153446834954,0.374740569135,217.640427019,813.706926152,13.5819982136
2008,-9.01279806958e-05,-0.00135553405691,0.374740569135,-60.8741777979,840.611967847,-155.967087019
2008,0.00103736262329,-0.000657999556344,0.374740569135,-48.0588740988,806.175299128,-17.7444449674
2008,-0.00119192526154,0.000164127186946,0.374740569135,-69.4901459526,730.008703819,-47.326049289
2008,-0.000669731651295,-0.00166402094694,0.374740569135,-3.23845017805,791.320436973,178.417796242
2008,0.000885768961851,-0.000995863182941,0.374740569135,165.202306184,696.154630947,105.017931242
2008,-0.000494419339363,-0.0011936345435,0.374740569135,-16.5957794895,960.568655531,220.66358863
2008,3.65211635787e-05,-0.00137799787723,0.374740569135,-26.5075447119,951.02940842,-172.477748494
2008,0.00164949282759,0.000291703464062,0.374740569135,159.720132185,721.232491227,-32.4248494797
2008,0.0013323414135,0.000598332795839,0.374740569135,-52.1236135425,921.332041485,50.1919360081
2008,-0.00165376453816,0.000442260047846,0.374740569135,41.7463950011,775.631503091,-134.764262344
2008,-0.000828695091503,-0.000992233821425,0.374740569135,98.9483252909,807.83081681,-0.352208343043
2008,0.00125949908256,1.74777472904e-05,0.374740569135,41.2081497631,803.698738934,107.826673099
2008,-0.00156105731418,2.46634660214e-05,0.374740569135,78.1418750853,790.95336248,-66.6447733749
2008,0.00176900292607,9.46645558604e-05,0.374740569135,41.2185752801,773.517674489,-0.25593313077
2008,0.000756186653239,-0.000941528673077,0.374740569135,-60.5122576492,896.166318126,69.0800394774
2008,0.000410488131003,-0.00134923653213,0.374740569135,-63.2004932872,817.963025032,86.8341682304
2008,-0.000222450623811,-0.00140045430798,0.374740569135,-165.920108715,819.656335984,75.6605982401
2008,0.00147823505292,8.9970907578e-06,0.374740569135,-5.25909371625,931.381115349,-13.4608038333
2008,0.00106199362184,-0.000980747545037,0.374740569135,75.1033451619,733.33034602,19.3572678472
2008,0.000641780718755,-0.00154009422916,0.374740569135,28.1727969322,997.582240864,130.370641456
2008,-0.000933054512139,0.00100829274874,0.374740569135,70.3700906463,949.133250154,-0.127915706959
2008,0.0011574689175,0.000868598850424,0.374740569135,12.7406228621,678.238289314,-74.932532441
2008,-0.00145242419531,0.000889967158873,0.374740569135,-46.0738791472,780.335088921,-17.5185500596
2008,0.00160572030754,0.000765244352911,0.374740569135,12.3395364232,870.906209417,-30.78392625
2008,-0.00152224238263,0.000260001101516,0.374740569135,100.44759323,892.106934582,132.727743534
2008,0.00144097024757,0.000297478265831,0.374740569135,192.904953224,871.090953137,-73.4085905696
2008,0.00134303935056,0.00016062465891,0.374740569135,93.7236097496,718.055561595,136.731005149
2008,-0.000807190536602,0.00125904266058,0.374740569135,19.2863497582,912.125468293,-47.1347545878
2008,-0.00148571602661,-0.000661897458432,0.374740569135,-311.460416438,691.082365896,216.914707918
2008,0.000294146900392,-0.00146068801849,0.374740569135,-96.5374418039,988.152894399,59.2290776995
2008,0.000301795366627,-0.00153994703114,0.374740569135,59.151450072,837.612397448,143.012056988
2008,0.000926249955158,0.00116751222464,0.374740569135,-239.82397967,883.880411608,-109.398545993
2008,0.00101505838752,-0.00094277351671,0.374740569135,-115.450077203,724.062418491,-23.2645114992
2008,-0.000975044557568,-0.00107864843413,0.374740569135,38.1605555023,768.646530419,41.2778399192
2008,0.000566619043766,0.00164926685627,0.374740569135,-71.9818214889,637.758233641,-127.908779988
2008,-0.000724114809997,-0.00122840766411,0.374740569135,-144.478433052,754.217056509,36.0867269616
2008,-0.00119843688893,-0.00124758063449,0.374740569135,-27.8968036655,931.278960497,82.2814348292
2008,-0.00077293622698,-0.00127600463888,0.374740569135,210.067099631,775.628658099,-145.541193799
2008,0.00144161746994,0.000263815327551,0.374740569135,48.9081601766,722.466663557,-5.91667944895
2008,0.00135544424224,0.000799051094267,0.374740569135,172.975951696,768.11836977,-47.5329549093
2008,0.00156050806116,-0.000845422113314,0.374740569135,13.6590354841,802.034878349,69.7124477733
2008,-0.00109199445926,-0.00132209514604,0.374740569135,-60.6039028182,820.227230036,-10.6344560918
2008,2.4793185309e-05,0.00166134546611,0.374740569135,-77.7437609188,838.137313989,-65.5425134244
2008,-0.000278666433803,0.00121315392951,0.374740569135,-52.8852884127,783.705775092,-306.371801508
2008,0.00168008778147,-0.00013423364437,0.374740569135,-183.926161535,761.668823834,142.06717601
2008,-0.00161702878709,0.00014836597051,0.374740569135,-137.59214206,919.912844601,-30.4960533412
2008,0.00110195381032,-0.00124521139789,0.374740569135,63.3355766961,788.982121067,52.8021557926
2008,0.00049253469814,0.00112141340676,0.374740569135,-142.919259234,842.326450115,-93.2029899527
2008,-0.00163065020021,-9.72160540296e-05,0.374740569135,-12.5464942565,808.193317616,40.7091213333
2008,0.00102917518705,0.00120200052557,0.374740569135,13.1550353805,686.24033809,-34.5499384312
2008,-0.00132920122537,-0.000813921535303,0.374740569135,35.5181908992,853.644725388,-17.2489724198
2008,-0.00107614177293,0.000932997227916,0.374740569135,-136.189873464,776.477558387,-72.015841097
2008,-0.000548126134862,-0.00138576336724,0.374740569135,-10.4832088132,714.852288515,-19.9876590551
2008,0.000483696487445,0.00146331725833,0.374740569135,-103.698700338,761.514190807,-7.04913694599
2008,-0.00146488078754,0.000916705204611,0.374740569135,-3.79363960125,902.751698407,45.9191859093
2008,0.00135368452474,0.000156839222533,0.374740569135,-43.6315893842,898.910909726,62.6875420685
2008,0.000752346047542,0.00100321939138,0.374740569135,-76.5553637761,830.966653531,-111.723197834
2008,0.00141261744824,-0.000308504396845,0.374740569135,35.9474040372,756.07637103,115.07798256
2008,0.000445528301752,0.00156847076679,0.374740569135,-7.75223450062,813.063200313,-11.4727791542
2008,0.000671546694041,-0.00107822120241,0.374740569135,-194.882791663,408.604315993,-50.229777684
2008,0.00135321563995,0.00101586686304,0.374740569135,38.3341545265,723.063979562,-147.429837813
2008,0.000563170345418,-0.00162483744231,0.374740569135,-57.1738262997,746.812628482,177.912634711
2008,0.000372085385825,-0.00140219228458,0.374740569135,-78.9898686634,711.186480987,-118.365556975
2008,0.000111302073728,0.00153168710318,0.374740569135,128.828601225,748.623907356,100.160360952
2008,0.000911803963561,-0.0011809858944,0.374740569135,127.206442328,911.173511089,184.188466522
2008,-0.00112657268009,-0.000973258827299,0.374740569135,-118.539608746,951.113601599,-13.9885488087
2008,-0.00147000472542,-0.000900082406712,0.374740569135,-96.7391918819,779.744808399,114.91995019
2008,0.00142355598686,-0.000361493378265,0.374740569135,-39.4437477992,803.148933974,91.7723624923
2008,0.00173562477881,0.000131082601427,0.374740569135,-47.4670302889,881.681775399,19.4666789881
2008,0.00101016054685,-0.000816429743789,0.374740569135,-6.37052793138,827.636993135,-59.241933163
2008,-0.00121996717169,-0.000822704861421,0.374740569135,-44.3706024831,965.667591421,-88.6043561673
2008,0.00148628431511,-0.000504966379923,0.374740569135,36.0447009391,713.711325006,-51.5400981737
2008,-0.000989842514252,-0.000736772313207,0.374740569135,-26.8782101505,847.637303683,116.390968329
2008,-0.00147551601585,0.000547158916783,0.374740569135,48.7946195764,932.399242432,48.4381579174
2008,-0.00148681475188,-0.000983134584629,0.374740569135,-123.472527984,846.045260851,-117.95529041
2008,-0.000321743022447,0.00158665726741,0.374740569135,-47.0647692514,754.068886795,-118.574316112
2008,0.000633663294192,0.00101997108591,0.374740569135,62.5236426234,642.374492285,-129.258159686
2008,-0.00120405920081,0.000899998274833,0.374740569135,119.714958964,806.575407187,-53.8837759349
2008,-0.000374478735527,-0.00121552640132,0.374740569135,-141.859253358,638.561134788,-80.0808134209
2008,-0.000969143626062,0.000957439852145,0.374740569135,42.0408132678,738.313888668,68.636148673
2008,0.000103877515117,0.00144653829079,0.374740569135,-188.787389741,886.920334731,-47.6961089884
2009,-0.000505746070214,-0.00167964426785,0.374740569135,126.529488075,795.62905966,36.0553022014
2009,-0.00116277557212,0.000905895685989,0.374740569135,8.00168105658,745.950198902,-75.6402792628
2009,-0.00122391813662,-0.000208067439537,0.374740569135,41.471314469,746.183249828,53.7223884004
2009,0.00153945522321,0.000842034096541,0.374740569135,-197.46650117,656.775015981,68.4342673968
2009,-0.000937314943573,0.00143889386557,0.374740569135,159.122662923,728.371183015,44.9968288337
2009,6.71513055449e-05,-0.00155997022684,0.374740569135,53.7622421166,841.601882993,152.211064857
2009,0.00156800411457,0.000726254307246,0.374740569135,-50.8645415338,928.302238559,8.78714082299
2009,-0.00023667180988,-0.00155133746118,0.374740569135,24.7814473036,810.792660588,33.5062431975
2009,-5.26191301347e-07,0.00175233941507,0.374740569135,-86.4238497004,678.913831682,76.3451470818
2009,0.000438912643306,0.00155433723599,0.374740569135,48.2158032907,935.8362575,-100.36655458
2009,0.000530774009182,-0.0015861737065,0.374740569135,283.808248395,995.305117663,-22.0352390193
2009,0.00138947598909,0.000778875238248,0.374740569135,-17.5305424001,675.569772524,28.3901981177
2009,0.00112564535562,-0.00118625581598,0.374740569135,-110.283924893,751.664763162,-92.6927134735
2009,-0.00115110926604,-0.0010674614481,0.374740569135,-9.38286924686,810.725216444,-139.923760088
2009,-0.00129335289576,0.000811355640368,0.374740569135,180.97931529,740.375735471,248.372703758
2009,9.37267580739e-05,0.00138655455564,0.374740569135,-66.2702854132,815.752489529,243.455439969
2009,-0.00127648032884,0.000149327313938,0.374740569135,-27.9940511059,633.762504532,-52.8469867696
2009,-0.000561951190545,-0.00157263907518,0.374740569135,141.115323705,793.619893425,17.7025731692
2009,-0.000557238929254,-0.00128841099208,0.374740569135,68.3172875982,862.369045352,-102.435010634
2009,0.00157551248085,-0.000483635451627,0.374740569135,-13.4860798577,731.103263631,40.501696282
2009,-0.00175246275679,3.61521748598e-05,0.374740569135,-18.6182610844,556.627492451,-4.58950554903
2009,-0.00154282675084,0.000803849572018,0.374740569135,119.263624573,979.313060325,85.1823942424
2009,0.00162339654385,-9.804074061e-06,0.374740569135,113.588190898,965.056833037,110.984974733
2009,0.000395138183153,0.00119277217724,0.374740569135,133.572880509,813.649903622,-129.227508742
2009,-0.00130264508244,7.49850858552e-05,0.374740569135,-89.4721841431,802.406790475,-10.2903718409
2009,0.00151955165903,-3.70566646794e-05,0.374740569135,-4.58440292756,661.688709914,-11.6047839289
2009,-0.00071075968821,0.00113713062517,0.374740569135,-36.0745595742,855.056492393,-30.8633394871
2009,-0.000212829937093,0.00132351434627,0.374740569135,-104.461745537,707.47956985,-181.068707228
2009,0.000598020423843,0.00163880900762,0.374740569135,129.762199975,859.030688051,-156.668304441
2009,6.71240866563e-05,-0.00164135986598,0.374740569135,115.359137767,967.905796355,-39.0637808585
2009,0.00085809675942,0.00147064390525,0.374740569135,115.524371379,862.37334602,-12.2001306802
2009,0.00098767714478,-0.000881212267221,0.374740569135,-59.1071542824,787.077755381,-17.5936823212
2009,-0.00111919490577,-0.000938123133835,0.374740569135,-82.3887215174,860.005665044,129.396297794
2009,-0.000437738960521,-0.00162594789343,0.374740569135,-13.4831714266,758.847215298,-5.10429186813
2009,0.000148689939127,0.00162234266893,0.374740569135,66.2032428913,745.305486922,-46.6793922549
2009,0.00127470350824,0.000350202322501,0.374740569135,73.3846715357,832.589922573,-177.774976559
2009,-0.00124232687961,-0.000336633275556,0.374740569135,54.2532131623,754.053624733,79.6502376065
2009,-0.00127033232637,0.000742468159171,0.374740569135,36.3529197321,797.117192952,114.257229419
2009,0.000144968566375,-0.00157942000557,0.374740569135,-9.74199513823,926.461811306,-6.69271610307
2009,-0.000330488859073,-0.00165843221035,0.374740569135,58.3963686921,785.112188139,-216.868406139
2009,-0.00167605425186,0.000333094786153,0.374740569135,11.673360603,615.793719979,23.0788833444
2009,0.000416101176784,0.00134739433568,0.374740569135,-33.0579798657,858.468349549,-52.8032323547
2009,0.00143846038703,0.000221051230619,0.374740569135,-4.09312697273,703.94939716,30.9455291453
2009,0.00146944924542,-0.00103147685692,0.374740569135,64.0004451896,818.266277251,-70.7565746354
2009,0.000526707660352,-0.00133544353908,0.374740569135,56.1092798436,783.405439739,-191.153260705
2009,0.00126438056248,0.000774439307849,0.374740569135,-87.2702651754,628.930781388,-162.210966873
2009,0.00134736333637,-0.000789899580958,0.374740569135,-7.54572396185,740.41681196,25.936365957
2009,-0.0011619756093,-0.00124192612478,0.374740569135,46.2845361169,818.090783781,-78.1050501836
2009,0.00117726746079,0.00053096829505,0.374740569135,68.9929378145,830.715039519,-54.8850087747
2009,-0.000809387928114,-0.0013667890771,0.374740569135,-13.0759974777,634.507433169,-70.2966799388
2009,0.00103441834634,0.00119503756808,0.374740569135,-152.97804215,795.693268535,-94.0455124642
2009,-0.00173056627711,0.000243514372648,0.374740569135,79.4232159621,822.119285297,9.98909583555
2009,-0.000532697105876,0.00154912870414,0.374740569135,55.1432717207,794.962052475,172.018506481
2009,0.00133870230855,0.000862033166302,0.374740569135,39.4133691673,708.192133628,-22.6707555901
2009,0.00136159328345,0.000245860048355,0.374740569135,101.552388788,634.172596584,134.801548717
2009,0.00103113095336,-0.00125692810253,0.374740569135,-104.561758074,778.275189479,75.3553417618
2009,-0.00144601859004,-0.000761101262775,0.374740569135,163.910551538,734.435093218,193.127870422
2009,-0.00159082175057,-0.0005205574016,0.374740569135,-7.23099653705,759.554455351,-36.5412525577
2009,-0.000428643158364,0.00137743851593,0.374740569135,-34.5960254682,747.667787736,43.6732914846
2009,0.000970457056842,-0.00149912938606,0.374740569135,-38.0409992808,858.897367133,-66.2503467405
2009,-0.00110914633758,-0.00108603935654,0.374740569135,23.8615760563,884.775383138,-12.6747197623
2009,-0.000665413575619,0.00116929605467,0.374740569135,-68.6070987404,1018.52534042,-27.2412969728
2009,-0.00129232957531,0.000121940510863,0.374740569135,-63.4248495334,963.455932396,25.0084912497
2009,-0.00126934688077,0.000107150322466,0.374740569135,-17.6465566108,846.01141479,88.8390489975
2009,0.000963529689344,-0.00108116168695,0.374740569135,-49.0479599024,853.212837317,-71.6361673712
2009,-0.00111730104236,0.00132771197902,0.374740569135,43.1371435416,830.461909523,-28.6893980558
2009,0.00131645951776,-0.000770604424773,0.374740569135,-100.389697855,950.612767897,-29.694436278
2009,-0.00120340163392,-0.00110456342539,0.374740569135,-67.5426581911,874.109031396,91.5230552493
2009,-0.0010704538284,-0.0010537359037,0.374740569135,-97.9922075223,863.798832276,47.463742389
2009,-0.00131181333475,-0.000142410802674,0.374740569135,109.304636656,696.137419063,34.9317885786
2009,-0.00124682255445,-7.75551718275e-05,0.374740569135,72.446733047,763.585822109,-72.8479717308
2009,0.000453700727074,-0.00146572381986,0.374740569135,32.2586511111,633.412285621,16.0381186577
2009,-0.00120617177771,0.00033001153906,0.374740569135,-42.113141341,849.517400684,-133.080659205
2009,0.000233422440018,0.00158037970073,0.374740569135,-266.893965202,862.262169851,65.1315086677
2009,0.000182907396615,-0.00123232337035,0.374740569135,-23.6369042015,701.809259307,38.8394418277
2009,-0.00137698916939,0.000740500902479,0.374740569135,-13.9889667097,923.274704439,-42.1098348467
2009,-0.00153265006272,0.000221767975764,0.374740569135,-51.0084230007,799.621422407,127.06849033
2009,-0.00134260262914,0.00067500321541,0.374740569135,80.3322808024,887.461270767,-14.8631561753
2009,-0.000410404306487,-0.00146030924743,0.374740569135,69.7155410443,694.521789173,-8.94147546813
2009,0.00113537973322,-0.000427851903487,0.374740569135,47.2598595818,897.297619741,5.00567440094
2009,-0.000146640295511,0.00136975553599,0.374740569135,-123.327705406,735.888029878,-93.4920555577
2009,-0.00115014803017,0.0013660517092,0.374740569135,53.5491186628,983.192013175,22.2338814182
2009,6.20336183941e-05,0.00160445834543,0.374740569135,55.5719762869,795.773331017,81.2077299426
2009,7.34296507658e-05,-0.00165902933186,0.374740569135,60.6606283398,860.120816871,-0.326217254486
2009,0.00126821892457,-0.000392732252705,0.374740569135,-57.1800861889,807.263445624,82.6015940821
2009,-0.00129759481893,0.00106534514594,0.374740569135,-99.089886721,749.870954066,-62.7314069192
2009,-0.000254050284109,-0.00166753686632,0.374740569135,65.1189002326,723.466557677,113.788603569
2009,0.00129300890926,-0.000152912744465,0.374740569135,54.0270579554,770.103674097,-195.410475581
2009,0.000701646594777,0.00154094708157,0.374740569135,-8.7681622047,798.097307718,-6.59994489605
2009,-0.000939429752536,0.00102549537902,0.374740569135,-157.821301259,754.807895434,-52.7147686264
2009,-0.000830381680989,-0.00136160148134,0.374740569135,21.2128148395,726.219564643,-94.8250729945
2009,0.00115956118409,-0.00125219284667,0.374740569135,-131.237073769,934.038686086,5.30405563443
2009,-0.000255804465955,-0.00150898378948,0.374740569135,-14.9981048105,854.587777207,55.0741381565
2009,0.000128178483714,0.00175733199395,0.374740569135,169.494488496,791.505907167,-57.6001522214
2009,0.00144189125306,-0.00105788114635,0.374740569135,3.71330992585,942.078210487,85.6655202485
2009,0.000102834750033,-0.00156363257138,0.374740569135,-154.805105559,808.679330362,26.2904134093
2009,-0.000859902561663,0.000857881052703,0.374740569135,-136.095675371,770.088280858,-124.60843228
2009,0.00111180810931,0.00121960108165,0.374740569135,-85.3595841409,811.003087568,-71.2306814828
2009,0.0013543022867,0.00111112460225,0.374740569135,52.182596823,881.841471521,128.159571969
2009,-0.000912281880896,0.00114994061876,0.374740569135,47.0458837684,835.952241946,2.3837505262
